('/home/wmolewnce/python/build/whatsapp/PYZ-00.pyz',
 [('pkg_resources',
   '/home/wmolewnce/.local/lib/python3.6/site-packages/pkg_resources/__init__.py',
   'PYMODULE'),
  ('pkg_resources._vendor.packaging.requirements',
   '/home/wmolewnce/.local/lib/python3.6/site-packages/pkg_resources/_vendor/packaging/requirements.py',
   'PYMODULE'),
  ('pkg_resources._vendor',
   '/home/wmolewnce/.local/lib/python3.6/site-packages/pkg_resources/_vendor/__init__.py',
   'PYMODULE'),
  ('pkg_resources._vendor.packaging.markers',
   '/home/wmolewnce/.local/lib/python3.6/site-packages/pkg_resources/_vendor/packaging/markers.py',
   'PYMODULE'),
  ('pkg_resources._vendor.appdirs',
   '/home/wmolewnce/.local/lib/python3.6/site-packages/pkg_resources/_vendor/appdirs.py',
   'PYMODULE'),
  ('ctypes', '/usr/lib/python3.6/ctypes/__init__.py', 'PYMODULE'),
  ('ctypes.wintypes', '/usr/lib/python3.6/ctypes/wintypes.py', 'PYMODULE'),
  ('ctypes._endian', '/usr/lib/python3.6/ctypes/_endian.py', 'PYMODULE'),
  ('pkg_resources._vendor.packaging._compat',
   '/home/wmolewnce/.local/lib/python3.6/site-packages/pkg_resources/_vendor/packaging/_compat.py',
   'PYMODULE'),
  ('pkg_resources._vendor.six',
   '/home/wmolewnce/.local/lib/python3.6/site-packages/pkg_resources/_vendor/six.py',
   'PYMODULE'),
  ('pkg_resources._vendor.packaging.specifiers',
   '/home/wmolewnce/.local/lib/python3.6/site-packages/pkg_resources/_vendor/packaging/specifiers.py',
   'PYMODULE'),
  ('pkg_resources._vendor.packaging',
   '/home/wmolewnce/.local/lib/python3.6/site-packages/pkg_resources/_vendor/packaging/__init__.py',
   'PYMODULE'),
  ('pkg_resources._vendor.packaging.utils',
   '/home/wmolewnce/.local/lib/python3.6/site-packages/pkg_resources/_vendor/packaging/utils.py',
   'PYMODULE'),
  ('pkg_resources._vendor.packaging.__about__',
   '/home/wmolewnce/.local/lib/python3.6/site-packages/pkg_resources/_vendor/packaging/__about__.py',
   'PYMODULE'),
  ('pkg_resources._vendor.packaging.version',
   '/home/wmolewnce/.local/lib/python3.6/site-packages/pkg_resources/_vendor/packaging/version.py',
   'PYMODULE'),
  ('pkg_resources._vendor.pyparsing',
   '/home/wmolewnce/.local/lib/python3.6/site-packages/pkg_resources/_vendor/pyparsing.py',
   'PYMODULE'),
  ('uuid', '/usr/lib/python3.6/uuid.py', 'PYMODULE'),
  ('ctypes.util', '/usr/lib/python3.6/ctypes/util.py', 'PYMODULE'),
  ('pkg_resources._vendor.packaging._structures',
   '/home/wmolewnce/.local/lib/python3.6/site-packages/pkg_resources/_vendor/packaging/_structures.py',
   'PYMODULE'),
  ('sysconfig', '/usr/lib/python3.6/sysconfig.py', 'PYMODULE'),
  ('_sysconfigdata_m_linux_x86_64-linux-gnu',
   '/usr/lib/python3.6/_sysconfigdata_m_linux_x86_64-linux-gnu.py',
   'PYMODULE'),
  ('_osx_support', '/usr/lib/python3.6/_osx_support.py', 'PYMODULE'),
  ('distutils.log', '/usr/lib/python3.6/distutils/log.py', 'PYMODULE'),
  ('distutils', '/usr/lib/python3.6/distutils/__init__.py', 'PYMODULE'),
  ('distutils.archive_util',
   '/usr/lib/python3.6/distutils/archive_util.py',
   'PYMODULE'),
  ('distutils.dir_util',
   '/usr/lib/python3.6/distutils/dir_util.py',
   'PYMODULE'),
  ('distutils.file_util',
   '/usr/lib/python3.6/distutils/file_util.py',
   'PYMODULE'),
  ('distutils.dep_util',
   '/usr/lib/python3.6/distutils/dep_util.py',
   'PYMODULE'),
  ('distutils.spawn', '/usr/lib/python3.6/distutils/spawn.py', 'PYMODULE'),
  ('distutils.debug', '/usr/lib/python3.6/distutils/debug.py', 'PYMODULE'),
  ('distutils.errors', '/usr/lib/python3.6/distutils/errors.py', 'PYMODULE'),
  ('distutils.ccompiler',
   '/usr/lib/python3.6/distutils/ccompiler.py',
   'PYMODULE'),
  ('distutils.fancy_getopt',
   '/usr/lib/python3.6/distutils/fancy_getopt.py',
   'PYMODULE'),
  ('distutils.util', '/usr/lib/python3.6/distutils/util.py', 'PYMODULE'),
  ('distutils.filelist',
   '/usr/lib/python3.6/distutils/filelist.py',
   'PYMODULE'),
  ('lib2to3.refactor', '/usr/lib/python3.6/lib2to3/refactor.py', 'PYMODULE'),
  ('multiprocessing',
   '/usr/lib/python3.6/multiprocessing/__init__.py',
   'PYMODULE'),
  ('multiprocessing.spawn',
   '/usr/lib/python3.6/multiprocessing/spawn.py',
   'PYMODULE'),
  ('runpy', '/usr/lib/python3.6/runpy.py', 'PYMODULE'),
  ('multiprocessing.semaphore_tracker',
   '/usr/lib/python3.6/multiprocessing/semaphore_tracker.py',
   'PYMODULE'),
  ('multiprocessing.pool',
   '/usr/lib/python3.6/multiprocessing/pool.py',
   'PYMODULE'),
  ('multiprocessing.dummy',
   '/usr/lib/python3.6/multiprocessing/dummy/__init__.py',
   'PYMODULE'),
  ('multiprocessing.dummy.connection',
   '/usr/lib/python3.6/multiprocessing/dummy/connection.py',
   'PYMODULE'),
  ('queue', '/usr/lib/python3.6/queue.py', 'PYMODULE'),
  ('multiprocessing.reduction',
   '/usr/lib/python3.6/multiprocessing/reduction.py',
   'PYMODULE'),
  ('multiprocessing.resource_sharer',
   '/usr/lib/python3.6/multiprocessing/resource_sharer.py',
   'PYMODULE'),
  ('multiprocessing.connection',
   '/usr/lib/python3.6/multiprocessing/connection.py',
   'PYMODULE'),
  ('xmlrpc.client', '/usr/lib/python3.6/xmlrpc/client.py', 'PYMODULE'),
  ('xmlrpc', '/usr/lib/python3.6/xmlrpc/__init__.py', 'PYMODULE'),
  ('decimal', '/usr/lib/python3.6/decimal.py', 'PYMODULE'),
  ('_pydecimal', '/usr/lib/python3.6/_pydecimal.py', 'PYMODULE'),
  ('numbers', '/usr/lib/python3.6/numbers.py', 'PYMODULE'),
  ('hmac', '/usr/lib/python3.6/hmac.py', 'PYMODULE'),
  ('multiprocessing.context',
   '/usr/lib/python3.6/multiprocessing/context.py',
   'PYMODULE'),
  ('multiprocessing.popen_spawn_win32',
   '/usr/lib/python3.6/multiprocessing/popen_spawn_win32.py',
   'PYMODULE'),
  ('multiprocessing.popen_forkserver',
   '/usr/lib/python3.6/multiprocessing/popen_forkserver.py',
   'PYMODULE'),
  ('multiprocessing.popen_spawn_posix',
   '/usr/lib/python3.6/multiprocessing/popen_spawn_posix.py',
   'PYMODULE'),
  ('multiprocessing.popen_fork',
   '/usr/lib/python3.6/multiprocessing/popen_fork.py',
   'PYMODULE'),
  ('multiprocessing.forkserver',
   '/usr/lib/python3.6/multiprocessing/forkserver.py',
   'PYMODULE'),
  ('multiprocessing.sharedctypes',
   '/usr/lib/python3.6/multiprocessing/sharedctypes.py',
   'PYMODULE'),
  ('multiprocessing.heap',
   '/usr/lib/python3.6/multiprocessing/heap.py',
   'PYMODULE'),
  ('multiprocessing.queues',
   '/usr/lib/python3.6/multiprocessing/queues.py',
   'PYMODULE'),
  ('multiprocessing.synchronize',
   '/usr/lib/python3.6/multiprocessing/synchronize.py',
   'PYMODULE'),
  ('multiprocessing.managers',
   '/usr/lib/python3.6/multiprocessing/managers.py',
   'PYMODULE'),
  ('multiprocessing.util',
   '/usr/lib/python3.6/multiprocessing/util.py',
   'PYMODULE'),
  ('multiprocessing.process',
   '/usr/lib/python3.6/multiprocessing/process.py',
   'PYMODULE'),
  ('lib2to3.btm_matcher',
   '/usr/lib/python3.6/lib2to3/btm_matcher.py',
   'PYMODULE'),
  ('lib2to3.btm_utils', '/usr/lib/python3.6/lib2to3/btm_utils.py', 'PYMODULE'),
  ('lib2to3.pgen2.grammar',
   '/usr/lib/python3.6/lib2to3/pgen2/grammar.py',
   'PYMODULE'),
  ('lib2to3.pygram', '/usr/lib/python3.6/lib2to3/pygram.py', 'PYMODULE'),
  ('lib2to3.pytree', '/usr/lib/python3.6/lib2to3/pytree.py', 'PYMODULE'),
  ('lib2to3', '/usr/lib/python3.6/lib2to3/__init__.py', 'PYMODULE'),
  ('lib2to3.patcomp', '/usr/lib/python3.6/lib2to3/patcomp.py', 'PYMODULE'),
  ('lib2to3.pgen2.parse',
   '/usr/lib/python3.6/lib2to3/pgen2/parse.py',
   'PYMODULE'),
  ('lib2to3.pgen2.literals',
   '/usr/lib/python3.6/lib2to3/pgen2/literals.py',
   'PYMODULE'),
  ('lib2to3.fixer_util',
   '/usr/lib/python3.6/lib2to3/fixer_util.py',
   'PYMODULE'),
  ('lib2to3.pgen2.token',
   '/usr/lib/python3.6/lib2to3/pgen2/token.py',
   'PYMODULE'),
  ('lib2to3.pgen2.tokenize',
   '/usr/lib/python3.6/lib2to3/pgen2/tokenize.py',
   'PYMODULE'),
  ('lib2to3.pgen2.driver',
   '/usr/lib/python3.6/lib2to3/pgen2/driver.py',
   'PYMODULE'),
  ('lib2to3.pgen2.pgen',
   '/usr/lib/python3.6/lib2to3/pgen2/pgen.py',
   'PYMODULE'),
  ('lib2to3.pgen2', '/usr/lib/python3.6/lib2to3/pgen2/__init__.py', 'PYMODULE'),
  ('distutils.sysconfig',
   '/usr/lib/python3.6/distutils/sysconfig.py',
   'PYMODULE'),
  ('distutils.text_file',
   '/usr/lib/python3.6/distutils/text_file.py',
   'PYMODULE'),
  ('pkg_resources.py31compat',
   '/home/wmolewnce/.local/lib/python3.6/site-packages/pkg_resources/py31compat.py',
   'PYMODULE'),
  ('pkg_resources.extern',
   '/home/wmolewnce/.local/lib/python3.6/site-packages/pkg_resources/extern/__init__.py',
   'PYMODULE'),
  ('imp', '/usr/lib/python3.6/imp.py', 'PYMODULE'),
  ('posixpath', '/usr/lib/python3.6/posixpath.py', 'PYMODULE'),
  ('_strptime', '/usr/lib/python3.6/_strptime.py', 'PYMODULE'),
  ('datetime', '/usr/lib/python3.6/datetime.py', 'PYMODULE'),
  ('fnmatch', '/usr/lib/python3.6/fnmatch.py', 'PYMODULE'),
  ('_compat_pickle', '/usr/lib/python3.6/_compat_pickle.py', 'PYMODULE'),
  ('__future__', '/usr/lib/python3.6/__future__.py', 'PYMODULE'),
  ('difflib', '/usr/lib/python3.6/difflib.py', 'PYMODULE'),
  ('ast', '/usr/lib/python3.6/ast.py', 'PYMODULE'),
  ('inspect', '/usr/lib/python3.6/inspect.py', 'PYMODULE'),
  ('cmd', '/usr/lib/python3.6/cmd.py', 'PYMODULE'),
  ('bdb', '/usr/lib/python3.6/bdb.py', 'PYMODULE'),
  ('opcode', '/usr/lib/python3.6/opcode.py', 'PYMODULE'),
  ('dis', '/usr/lib/python3.6/dis.py', 'PYMODULE'),
  ('codeop', '/usr/lib/python3.6/codeop.py', 'PYMODULE'),
  ('code', '/usr/lib/python3.6/code.py', 'PYMODULE'),
  ('glob', '/usr/lib/python3.6/glob.py', 'PYMODULE'),
  ('shlex', '/usr/lib/python3.6/shlex.py', 'PYMODULE'),
  ('importlib._bootstrap',
   '/usr/lib/python3.6/importlib/_bootstrap.py',
   'PYMODULE'),
  ('importlib._bootstrap_external',
   '/usr/lib/python3.6/importlib/_bootstrap_external.py',
   'PYMODULE'),
  ('importlib.machinery',
   '/usr/lib/python3.6/importlib/machinery.py',
   'PYMODULE'),
  ('importlib.util', '/usr/lib/python3.6/importlib/util.py', 'PYMODULE'),
  ('importlib.abc', '/usr/lib/python3.6/importlib/abc.py', 'PYMODULE'),
  ('importlib', '/usr/lib/python3.6/importlib/__init__.py', 'PYMODULE'),
  ('pkgutil', '/usr/lib/python3.6/pkgutil.py', 'PYMODULE'),
  ('xml', '/usr/lib/python3.6/xml/__init__.py', 'PYMODULE'),
  ('xml.sax.expatreader',
   '/usr/lib/python3.6/xml/sax/expatreader.py',
   'PYMODULE'),
  ('xml.sax.saxutils', '/usr/lib/python3.6/xml/sax/saxutils.py', 'PYMODULE'),
  ('urllib.request', '/usr/lib/python3.6/urllib/request.py', 'PYMODULE'),
  ('getpass', '/usr/lib/python3.6/getpass.py', 'PYMODULE'),
  ('nturl2path', '/usr/lib/python3.6/nturl2path.py', 'PYMODULE'),
  ('ftplib', '/usr/lib/python3.6/ftplib.py', 'PYMODULE'),
  ('netrc', '/usr/lib/python3.6/netrc.py', 'PYMODULE'),
  ('http.cookiejar', '/usr/lib/python3.6/http/cookiejar.py', 'PYMODULE'),
  ('urllib.response', '/usr/lib/python3.6/urllib/response.py', 'PYMODULE'),
  ('urllib.error', '/usr/lib/python3.6/urllib/error.py', 'PYMODULE'),
  ('xml.sax', '/usr/lib/python3.6/xml/sax/__init__.py', 'PYMODULE'),
  ('xml.sax.handler', '/usr/lib/python3.6/xml/sax/handler.py', 'PYMODULE'),
  ('xml.sax._exceptions',
   '/usr/lib/python3.6/xml/sax/_exceptions.py',
   'PYMODULE'),
  ('xml.sax.xmlreader', '/usr/lib/python3.6/xml/sax/xmlreader.py', 'PYMODULE'),
  ('xml.parsers', '/usr/lib/python3.6/xml/parsers/__init__.py', 'PYMODULE'),
  ('xml.parsers.expat', '/usr/lib/python3.6/xml/parsers/expat.py', 'PYMODULE'),
  ('plistlib', '/usr/lib/python3.6/plistlib.py', 'PYMODULE'),
  ('platform', '/usr/lib/python3.6/platform.py', 'PYMODULE'),
  ('token', '/usr/lib/python3.6/token.py', 'PYMODULE'),
  ('tokenize', '/usr/lib/python3.6/tokenize.py', 'PYMODULE'),
  ('urllib.parse', '/usr/lib/python3.6/urllib/parse.py', 'PYMODULE'),
  ('tempfile', '/usr/lib/python3.6/tempfile.py', 'PYMODULE'),
  ('tty', '/usr/lib/python3.6/tty.py', 'PYMODULE'),
  ('pydoc_data', '/usr/lib/python3.6/pydoc_data/__init__.py', 'PYMODULE'),
  ('pydoc_data.topics', '/usr/lib/python3.6/pydoc_data/topics.py', 'PYMODULE'),
  ('html.entities', '/usr/lib/python3.6/html/entities.py', 'PYMODULE'),
  ('html', '/usr/lib/python3.6/html/__init__.py', 'PYMODULE'),
  ('ipaddress', '/usr/lib/python3.6/ipaddress.py', 'PYMODULE'),
  ('ssl', '/usr/lib/python3.6/ssl.py', 'PYMODULE'),
  ('http.client', '/usr/lib/python3.6/http/client.py', 'PYMODULE'),
  ('mimetypes', '/usr/lib/python3.6/mimetypes.py', 'PYMODULE'),
  ('socketserver', '/usr/lib/python3.6/socketserver.py', 'PYMODULE'),
  ('http', '/usr/lib/python3.6/http/__init__.py', 'PYMODULE'),
  ('http.server', '/usr/lib/python3.6/http/server.py', 'PYMODULE'),
  ('optparse', '/usr/lib/python3.6/optparse.py', 'PYMODULE'),
  ('uu', '/usr/lib/python3.6/uu.py', 'PYMODULE'),
  ('email.feedparser', '/usr/lib/python3.6/email/feedparser.py', 'PYMODULE'),
  ('email.parser', '/usr/lib/python3.6/email/parser.py', 'PYMODULE'),
  ('email', '/usr/lib/python3.6/email/__init__.py', 'PYMODULE'),
  ('calendar', '/usr/lib/python3.6/calendar.py', 'PYMODULE'),
  ('email._parseaddr', '/usr/lib/python3.6/email/_parseaddr.py', 'PYMODULE'),
  ('email.utils', '/usr/lib/python3.6/email/utils.py', 'PYMODULE'),
  ('email.errors', '/usr/lib/python3.6/email/errors.py', 'PYMODULE'),
  ('email.header', '/usr/lib/python3.6/email/header.py', 'PYMODULE'),
  ('email._policybase', '/usr/lib/python3.6/email/_policybase.py', 'PYMODULE'),
  ('email.base64mime', '/usr/lib/python3.6/email/base64mime.py', 'PYMODULE'),
  ('email.encoders', '/usr/lib/python3.6/email/encoders.py', 'PYMODULE'),
  ('email.charset', '/usr/lib/python3.6/email/charset.py', 'PYMODULE'),
  ('email._encoded_words',
   '/usr/lib/python3.6/email/_encoded_words.py',
   'PYMODULE'),
  ('hashlib', '/usr/lib/python3.6/hashlib.py', 'PYMODULE'),
  ('bisect', '/usr/lib/python3.6/bisect.py', 'PYMODULE'),
  ('email.generator', '/usr/lib/python3.6/email/generator.py', 'PYMODULE'),
  ('email.iterators', '/usr/lib/python3.6/email/iterators.py', 'PYMODULE'),
  ('urllib', '/usr/lib/python3.6/urllib/__init__.py', 'PYMODULE'),
  ('email._header_value_parser',
   '/usr/lib/python3.6/email/_header_value_parser.py',
   'PYMODULE'),
  ('email.headerregistry',
   '/usr/lib/python3.6/email/headerregistry.py',
   'PYMODULE'),
  ('email.quoprimime', '/usr/lib/python3.6/email/quoprimime.py', 'PYMODULE'),
  ('email.contentmanager',
   '/usr/lib/python3.6/email/contentmanager.py',
   'PYMODULE'),
  ('email.policy', '/usr/lib/python3.6/email/policy.py', 'PYMODULE'),
  ('email.message', '/usr/lib/python3.6/email/message.py', 'PYMODULE'),
  ('lzma', '/usr/lib/python3.6/lzma.py', 'PYMODULE'),
  ('gzip', '/usr/lib/python3.6/gzip.py', 'PYMODULE'),
  ('tarfile', '/usr/lib/python3.6/tarfile.py', 'PYMODULE'),
  ('py_compile', '/usr/lib/python3.6/py_compile.py', 'PYMODULE'),
  ('zipfile', '/usr/lib/python3.6/zipfile.py', 'PYMODULE'),
  ('shutil', '/usr/lib/python3.6/shutil.py', 'PYMODULE'),
  ('webbrowser', '/usr/lib/python3.6/webbrowser.py', 'PYMODULE'),
  ('pydoc', '/usr/lib/python3.6/pydoc.py', 'PYMODULE'),
  ('pdb', '/usr/lib/python3.6/pdb.py', 'PYMODULE'),
  ('unittest.util', '/usr/lib/python3.6/unittest/util.py', 'PYMODULE'),
  ('unittest.result', '/usr/lib/python3.6/unittest/result.py', 'PYMODULE'),
  ('logging', '/usr/lib/python3.6/logging/__init__.py', 'PYMODULE'),
  ('unittest.case', '/usr/lib/python3.6/unittest/case.py', 'PYMODULE'),
  ('unittest.suite', '/usr/lib/python3.6/unittest/suite.py', 'PYMODULE'),
  ('unittest.loader', '/usr/lib/python3.6/unittest/loader.py', 'PYMODULE'),
  ('unittest.runner', '/usr/lib/python3.6/unittest/runner.py', 'PYMODULE'),
  ('unittest.main', '/usr/lib/python3.6/unittest/main.py', 'PYMODULE'),
  ('unittest.signals', '/usr/lib/python3.6/unittest/signals.py', 'PYMODULE'),
  ('unittest', '/usr/lib/python3.6/unittest/__init__.py', 'PYMODULE'),
  ('doctest', '/usr/lib/python3.6/doctest.py', 'PYMODULE'),
  ('textwrap', '/usr/lib/python3.6/textwrap.py', 'PYMODULE'),
  ('argparse', '/usr/lib/python3.6/argparse.py', 'PYMODULE'),
  ('pprint', '/usr/lib/python3.6/pprint.py', 'PYMODULE'),
  ('pickle', '/usr/lib/python3.6/pickle.py', 'PYMODULE'),
  ('tracemalloc', '/usr/lib/python3.6/tracemalloc.py', 'PYMODULE'),
  ('stringprep', '/usr/lib/python3.6/stringprep.py', 'PYMODULE'),
  ('_compression', '/usr/lib/python3.6/_compression.py', 'PYMODULE'),
  ('bz2', '/usr/lib/python3.6/bz2.py', 'PYMODULE'),
  ('base64', '/usr/lib/python3.6/base64.py', 'PYMODULE'),
  ('stat', '/usr/lib/python3.6/stat.py', 'PYMODULE'),
  ('genericpath', '/usr/lib/python3.6/genericpath.py', 'PYMODULE'),
  ('string', '/usr/lib/python3.6/string.py', 'PYMODULE'),
  ('ntpath', '/usr/lib/python3.6/ntpath.py', 'PYMODULE'),
  ('signal', '/usr/lib/python3.6/signal.py', 'PYMODULE'),
  ('contextlib', '/usr/lib/python3.6/contextlib.py', 'PYMODULE'),
  ('_threading_local', '/usr/lib/python3.6/_threading_local.py', 'PYMODULE'),
  ('threading', '/usr/lib/python3.6/threading.py', 'PYMODULE'),
  ('selectors', '/usr/lib/python3.6/selectors.py', 'PYMODULE'),
  ('_dummy_thread', '/usr/lib/python3.6/_dummy_thread.py', 'PYMODULE'),
  ('dummy_threading', '/usr/lib/python3.6/dummy_threading.py', 'PYMODULE'),
  ('subprocess', '/usr/lib/python3.6/subprocess.py', 'PYMODULE'),
  ('struct', '/usr/lib/python3.6/struct.py', 'PYMODULE'),
  ('gettext', '/usr/lib/python3.6/gettext.py', 'PYMODULE'),
  ('getopt', '/usr/lib/python3.6/getopt.py', 'PYMODULE'),
  ('quopri', '/usr/lib/python3.6/quopri.py', 'PYMODULE'),
  ('copy', '/usr/lib/python3.6/copy.py', 'PYMODULE'),
  ('os', '/usr/lib/python3.6/os.py', 'PYMODULE'),
  ('random', '/usr/lib/python3.6/random.py', 'PYMODULE'),
  ('pandas',
   '/home/wmolewnce/.local/lib/python3.6/site-packages/pandas/__init__.py',
   'PYMODULE'),
  ('pandas._libs.tslibs',
   '/home/wmolewnce/.local/lib/python3.6/site-packages/pandas/_libs/tslibs/__init__.py',
   'PYMODULE'),
  ('pandas._version',
   '/home/wmolewnce/.local/lib/python3.6/site-packages/pandas/_version.py',
   'PYMODULE'),
  ('json', '/usr/lib/python3.6/json/__init__.py', 'PYMODULE'),
  ('json.encoder', '/usr/lib/python3.6/json/encoder.py', 'PYMODULE'),
  ('json.decoder', '/usr/lib/python3.6/json/decoder.py', 'PYMODULE'),
  ('json.scanner', '/usr/lib/python3.6/json/scanner.py', 'PYMODULE'),
  ('pandas.arrays',
   '/home/wmolewnce/.local/lib/python3.6/site-packages/pandas/arrays/__init__.py',
   'PYMODULE'),
  ('pandas.core.arrays',
   '/home/wmolewnce/.local/lib/python3.6/site-packages/pandas/core/arrays/__init__.py',
   'PYMODULE'),
  ('pandas.core.arrays.numpy_',
   '/home/wmolewnce/.local/lib/python3.6/site-packages/pandas/core/arrays/numpy_.py',
   'PYMODULE'),
  ('pandas.core.algorithms',
   '/home/wmolewnce/.local/lib/python3.6/site-packages/pandas/core/algorithms.py',
   'PYMODULE'),
  ('pandas.core.indexing',
   '/home/wmolewnce/.local/lib/python3.6/site-packages/pandas/core/indexing.py',
   'PYMODULE'),
  ('pandas.core.index',
   '/home/wmolewnce/.local/lib/python3.6/site-packages/pandas/core/index.py',
   'PYMODULE'),
  ('pandas.core.indexes.multi',
   '/home/wmolewnce/.local/lib/python3.6/site-packages/pandas/core/indexes/multi.py',
   'PYMODULE'),
  ('pandas.core.indexes',
   '/home/wmolewnce/.local/lib/python3.6/site-packages/pandas/core/indexes/__init__.py',
   'PYMODULE'),
  ('pandas.core.indexes.numeric',
   '/home/wmolewnce/.local/lib/python3.6/site-packages/pandas/core/indexes/numeric.py',
   'PYMODULE'),
  ('pandas.core.ops',
   '/home/wmolewnce/.local/lib/python3.6/site-packages/pandas/core/ops.py',
   'PYMODULE'),
  ('pandas.core.computation.expressions',
   '/home/wmolewnce/.local/lib/python3.6/site-packages/pandas/core/computation/expressions.py',
   'PYMODULE'),
  ('pandas.core.computation',
   '/home/wmolewnce/.local/lib/python3.6/site-packages/pandas/core/computation/__init__.py',
   'PYMODULE'),
  ('pandas.core.computation.check',
   '/home/wmolewnce/.local/lib/python3.6/site-packages/pandas/core/computation/check.py',
   'PYMODULE'),
  ('distutils.version', '/usr/lib/python3.6/distutils/version.py', 'PYMODULE'),
  ('pandas.core.dtypes.concat',
   '/home/wmolewnce/.local/lib/python3.6/site-packages/pandas/core/dtypes/concat.py',
   'PYMODULE'),
  ('pandas.core.dtypes',
   '/home/wmolewnce/.local/lib/python3.6/site-packages/pandas/core/dtypes/__init__.py',
   'PYMODULE'),
  ('pandas.core.util.hashing',
   '/home/wmolewnce/.local/lib/python3.6/site-packages/pandas/core/util/hashing.py',
   'PYMODULE'),
  ('pandas.core.util',
   '/home/wmolewnce/.local/lib/python3.6/site-packages/pandas/core/util/__init__.py',
   'PYMODULE'),
  ('pandas.io.formats.format',
   '/home/wmolewnce/.local/lib/python3.6/site-packages/pandas/io/formats/format.py',
   'PYMODULE'),
  ('pandas.io.formats.html',
   '/home/wmolewnce/.local/lib/python3.6/site-packages/pandas/io/formats/html.py',
   'PYMODULE'),
  ('pandas.io.formats.latex',
   '/home/wmolewnce/.local/lib/python3.6/site-packages/pandas/io/formats/latex.py',
   'PYMODULE'),
  ('pandas.core.reshape.concat',
   '/home/wmolewnce/.local/lib/python3.6/site-packages/pandas/core/reshape/concat.py',
   'PYMODULE'),
  ('pandas.core.internals',
   '/home/wmolewnce/.local/lib/python3.6/site-packages/pandas/core/internals/__init__.py',
   'PYMODULE'),
  ('pandas.core.internals.managers',
   '/home/wmolewnce/.local/lib/python3.6/site-packages/pandas/core/internals/managers.py',
   'PYMODULE'),
  ('pandas.core.internals.concat',
   '/home/wmolewnce/.local/lib/python3.6/site-packages/pandas/core/internals/concat.py',
   'PYMODULE'),
  ('pandas.core.internals.blocks',
   '/home/wmolewnce/.local/lib/python3.6/site-packages/pandas/core/internals/blocks.py',
   'PYMODULE'),
  ('pandas.core.generic',
   '/home/wmolewnce/.local/lib/python3.6/site-packages/pandas/core/generic.py',
   'PYMODULE'),
  ('pandas.core.window',
   '/home/wmolewnce/.local/lib/python3.6/site-packages/pandas/core/window.py',
   'PYMODULE'),
  ('pandas.core.groupby.base',
   '/home/wmolewnce/.local/lib/python3.6/site-packages/pandas/core/groupby/base.py',
   'PYMODULE'),
  ('pandas.core.groupby',
   '/home/wmolewnce/.local/lib/python3.6/site-packages/pandas/core/groupby/__init__.py',
   'PYMODULE'),
  ('pandas.core.groupby.grouper',
   '/home/wmolewnce/.local/lib/python3.6/site-packages/pandas/core/groupby/grouper.py',
   'PYMODULE'),
  ('pandas.core.groupby.categorical',
   '/home/wmolewnce/.local/lib/python3.6/site-packages/pandas/core/groupby/categorical.py',
   'PYMODULE'),
  ('pandas.core.groupby.ops',
   '/home/wmolewnce/.local/lib/python3.6/site-packages/pandas/core/groupby/ops.py',
   'PYMODULE'),
  ('pandas.core.frame',
   '/home/wmolewnce/.local/lib/python3.6/site-packages/pandas/core/frame.py',
   'PYMODULE'),
  ('pandas.core.reshape.merge',
   '/home/wmolewnce/.local/lib/python3.6/site-packages/pandas/core/reshape/merge.py',
   'PYMODULE'),
  ('pandas.core.apply',
   '/home/wmolewnce/.local/lib/python3.6/site-packages/pandas/core/apply.py',
   'PYMODULE'),
  ('pandas.core.reshape.melt',
   '/home/wmolewnce/.local/lib/python3.6/site-packages/pandas/core/reshape/melt.py',
   'PYMODULE'),
  ('pandas.core.tools.numeric',
   '/home/wmolewnce/.local/lib/python3.6/site-packages/pandas/core/tools/numeric.py',
   'PYMODULE'),
  ('pandas.core.tools',
   '/home/wmolewnce/.local/lib/python3.6/site-packages/pandas/core/tools/__init__.py',
   'PYMODULE'),
  ('pandas.core.reshape.reshape',
   '/home/wmolewnce/.local/lib/python3.6/site-packages/pandas/core/reshape/reshape.py',
   'PYMODULE'),
  ('pandas.core.reshape.pivot',
   '/home/wmolewnce/.local/lib/python3.6/site-packages/pandas/core/reshape/pivot.py',
   'PYMODULE'),
  ('pandas.core.computation.eval',
   '/home/wmolewnce/.local/lib/python3.6/site-packages/pandas/core/computation/eval.py',
   'PYMODULE'),
  ('pandas.core.computation.expr',
   '/home/wmolewnce/.local/lib/python3.6/site-packages/pandas/core/computation/expr.py',
   'PYMODULE'),
  ('pandas.core.computation.ops',
   '/home/wmolewnce/.local/lib/python3.6/site-packages/pandas/core/computation/ops.py',
   'PYMODULE'),
  ('pandas.core.computation.common',
   '/home/wmolewnce/.local/lib/python3.6/site-packages/pandas/core/computation/common.py',
   'PYMODULE'),
  ('pandas.core.computation.scope',
   '/home/wmolewnce/.local/lib/python3.6/site-packages/pandas/core/computation/scope.py',
   'PYMODULE'),
  ('pandas.core.computation.engines',
   '/home/wmolewnce/.local/lib/python3.6/site-packages/pandas/core/computation/engines.py',
   'PYMODULE'),
  ('pandas.core.computation.align',
   '/home/wmolewnce/.local/lib/python3.6/site-packages/pandas/core/computation/align.py',
   'PYMODULE'),
  ('pandas.io.parquet',
   '/home/wmolewnce/.local/lib/python3.6/site-packages/pandas/io/parquet.py',
   'PYMODULE'),
  ('pandas.io.feather_format',
   '/home/wmolewnce/.local/lib/python3.6/site-packages/pandas/io/feather_format.py',
   'PYMODULE'),
  ('pandas.io.stata',
   '/home/wmolewnce/.local/lib/python3.6/site-packages/pandas/io/stata.py',
   'PYMODULE'),
  ('dateutil.relativedelta',
   '/home/wmolewnce/.local/lib/python3.6/site-packages/dateutil/relativedelta.py',
   'PYMODULE'),
  ('dateutil',
   '/home/wmolewnce/.local/lib/python3.6/site-packages/dateutil/__init__.py',
   'PYMODULE'),
  ('dateutil.parser',
   '/home/wmolewnce/.local/lib/python3.6/site-packages/dateutil/parser/__init__.py',
   'PYMODULE'),
  ('dateutil.parser.isoparser',
   '/home/wmolewnce/.local/lib/python3.6/site-packages/dateutil/parser/isoparser.py',
   'PYMODULE'),
  ('dateutil.parser._parser',
   '/home/wmolewnce/.local/lib/python3.6/site-packages/dateutil/parser/_parser.py',
   'PYMODULE'),
  ('dateutil.tz',
   '/home/wmolewnce/.local/lib/python3.6/site-packages/dateutil/tz/__init__.py',
   'PYMODULE'),
  ('dateutil.tz.tz',
   '/home/wmolewnce/.local/lib/python3.6/site-packages/dateutil/tz/tz.py',
   'PYMODULE'),
  ('dateutil.zoneinfo',
   '/home/wmolewnce/.local/lib/python3.6/site-packages/dateutil/zoneinfo/__init__.py',
   'PYMODULE'),
  ('dateutil.tz.win',
   '/home/wmolewnce/.local/lib/python3.6/site-packages/dateutil/tz/win.py',
   'PYMODULE'),
  ('dateutil.tz._factories',
   '/home/wmolewnce/.local/lib/python3.6/site-packages/dateutil/tz/_factories.py',
   'PYMODULE'),
  ('dateutil.tz._common',
   '/home/wmolewnce/.local/lib/python3.6/site-packages/dateutil/tz/_common.py',
   'PYMODULE'),
  ('dateutil.rrule',
   '/home/wmolewnce/.local/lib/python3.6/site-packages/dateutil/rrule.py',
   'PYMODULE'),
  ('fractions', '/usr/lib/python3.6/fractions.py', 'PYMODULE'),
  ('dateutil.easter',
   '/home/wmolewnce/.local/lib/python3.6/site-packages/dateutil/easter.py',
   'PYMODULE'),
  ('dateutil._version',
   '/home/wmolewnce/.local/lib/python3.6/site-packages/dateutil/_version.py',
   'PYMODULE'),
  ('dateutil._common',
   '/home/wmolewnce/.local/lib/python3.6/site-packages/dateutil/_common.py',
   'PYMODULE'),
  ('six',
   '/home/wmolewnce/.local/lib/python3.6/site-packages/six.py',
   'PYMODULE'),
  ('pandas.io.parsers',
   '/home/wmolewnce/.local/lib/python3.6/site-packages/pandas/io/parsers.py',
   'PYMODULE'),
  ('pandas.io.date_converters',
   '/home/wmolewnce/.local/lib/python3.6/site-packages/pandas/io/date_converters.py',
   'PYMODULE'),
  ('csv', '/usr/lib/python3.6/csv.py', 'PYMODULE'),
  ('pandas.io.gbq',
   '/home/wmolewnce/.local/lib/python3.6/site-packages/pandas/io/gbq.py',
   'PYMODULE'),
  ('pandas.io.formats.style',
   '/home/wmolewnce/.local/lib/python3.6/site-packages/pandas/io/formats/style.py',
   'PYMODULE'),
  ('pandas.api.types',
   '/home/wmolewnce/.local/lib/python3.6/site-packages/pandas/api/types/__init__.py',
   'PYMODULE'),
  ('pandas.api',
   '/home/wmolewnce/.local/lib/python3.6/site-packages/pandas/api/__init__.py',
   'PYMODULE'),
  ('pandas.api.extensions',
   '/home/wmolewnce/.local/lib/python3.6/site-packages/pandas/api/extensions/__init__.py',
   'PYMODULE'),
  ('pandas.core.dtypes.api',
   '/home/wmolewnce/.local/lib/python3.6/site-packages/pandas/core/dtypes/api.py',
   'PYMODULE'),
  ('numpy.ma.mrecords',
   '/home/wmolewnce/.local/lib/python3.6/site-packages/numpy/ma/mrecords.py',
   'PYMODULE'),
  ('numpy.core.records',
   '/home/wmolewnce/.local/lib/python3.6/site-packages/numpy/core/records.py',
   'PYMODULE'),
  ('numpy.core.arrayprint',
   '/home/wmolewnce/.local/lib/python3.6/site-packages/numpy/core/arrayprint.py',
   'PYMODULE'),
  ('numpy.core.fromnumeric',
   '/home/wmolewnce/.local/lib/python3.6/site-packages/numpy/core/fromnumeric.py',
   'PYMODULE'),
  ('numpy.core._methods',
   '/home/wmolewnce/.local/lib/python3.6/site-packages/numpy/core/_methods.py',
   'PYMODULE'),
  ('numpy._globals',
   '/home/wmolewnce/.local/lib/python3.6/site-packages/numpy/_globals.py',
   'PYMODULE'),
  ('numpy.core.multiarray',
   '/home/wmolewnce/.local/lib/python3.6/site-packages/numpy/core/multiarray.py',
   'PYMODULE'),
  ('numpy.core.umath',
   '/home/wmolewnce/.local/lib/python3.6/site-packages/numpy/core/umath.py',
   'PYMODULE'),
  ('numpy.core.overrides',
   '/home/wmolewnce/.local/lib/python3.6/site-packages/numpy/core/overrides.py',
   'PYMODULE'),
  ('numpy.compat._inspect',
   '/home/wmolewnce/.local/lib/python3.6/site-packages/numpy/compat/_inspect.py',
   'PYMODULE'),
  ('numpy.core.numeric',
   '/home/wmolewnce/.local/lib/python3.6/site-packages/numpy/core/numeric.py',
   'PYMODULE'),
  ('numpy.core._internal',
   '/home/wmolewnce/.local/lib/python3.6/site-packages/numpy/core/_internal.py',
   'PYMODULE'),
  ('numpy.core',
   '/home/wmolewnce/.local/lib/python3.6/site-packages/numpy/core/__init__.py',
   'PYMODULE'),
  ('numpy._pytesttester',
   '/home/wmolewnce/.local/lib/python3.6/site-packages/numpy/_pytesttester.py',
   'PYMODULE'),
  ('numpy.distutils.cpuinfo',
   '/home/wmolewnce/.local/lib/python3.6/site-packages/numpy/distutils/cpuinfo.py',
   'PYMODULE'),
  ('numpy.distutils.compat',
   '/home/wmolewnce/.local/lib/python3.6/site-packages/numpy/distutils/compat.py',
   'PYMODULE'),
  ('numpy.distutils',
   '/home/wmolewnce/.local/lib/python3.6/site-packages/numpy/distutils/__init__.py',
   'PYMODULE'),
  ('numpy.distutils.fcompiler',
   '/home/wmolewnce/.local/lib/python3.6/site-packages/numpy/distutils/fcompiler/__init__.py',
   'PYMODULE'),
  ('numpy.distutils.command.config_compiler',
   '/home/wmolewnce/.local/lib/python3.6/site-packages/numpy/distutils/command/config_compiler.py',
   'PYMODULE'),
  ('numpy.distutils.command',
   '/home/wmolewnce/.local/lib/python3.6/site-packages/numpy/distutils/command/__init__.py',
   'PYMODULE'),
  ('numpy.distutils.command.egg_info',
   '/home/wmolewnce/.local/lib/python3.6/site-packages/numpy/distutils/command/egg_info.py',
   'PYMODULE'),
  ('setuptools.command.egg_info',
   '/home/wmolewnce/.local/lib/python3.6/site-packages/setuptools/command/egg_info.py',
   'PYMODULE'),
  ('setuptools.glob',
   '/home/wmolewnce/.local/lib/python3.6/site-packages/setuptools/glob.py',
   'PYMODULE'),
  ('setuptools.unicode_utils',
   '/home/wmolewnce/.local/lib/python3.6/site-packages/setuptools/unicode_utils.py',
   'PYMODULE'),
  ('setuptools.command.bdist_egg',
   '/home/wmolewnce/.local/lib/python3.6/site-packages/setuptools/command/bdist_egg.py',
   'PYMODULE'),
  ('setuptools.extension',
   '/home/wmolewnce/.local/lib/python3.6/site-packages/setuptools/extension.py',
   'PYMODULE'),
  ('setuptools.monkey',
   '/home/wmolewnce/.local/lib/python3.6/site-packages/setuptools/monkey.py',
   'PYMODULE'),
  ('distutils.extension',
   '/usr/lib/python3.6/distutils/extension.py',
   'PYMODULE'),
  ('setuptools.command',
   '/home/wmolewnce/.local/lib/python3.6/site-packages/setuptools/command/__init__.py',
   'PYMODULE'),
  ('setuptools.command.install_scripts',
   '/home/wmolewnce/.local/lib/python3.6/site-packages/setuptools/command/install_scripts.py',
   'PYMODULE'),
  ('setuptools.command.easy_install',
   '/home/wmolewnce/.local/lib/python3.6/site-packages/setuptools/command/easy_install.py',
   'PYMODULE'),
  ('setuptools.dist',
   '/home/wmolewnce/.local/lib/python3.6/site-packages/setuptools/dist.py',
   'PYMODULE'),
  ('setuptools.config',
   '/home/wmolewnce/.local/lib/python3.6/site-packages/setuptools/config.py',
   'PYMODULE'),
  ('setuptools.windows_support',
   '/home/wmolewnce/.local/lib/python3.6/site-packages/setuptools/windows_support.py',
   'PYMODULE'),
  ('setuptools.depends',
   '/home/wmolewnce/.local/lib/python3.6/site-packages/setuptools/depends.py',
   'PYMODULE'),
  ('setuptools.py33compat',
   '/home/wmolewnce/.local/lib/python3.6/site-packages/setuptools/py33compat.py',
   'PYMODULE'),
  ('html.parser', '/usr/lib/python3.6/html/parser.py', 'PYMODULE'),
  ('_markupbase', '/usr/lib/python3.6/_markupbase.py', 'PYMODULE'),
  ('distutils.cmd', '/usr/lib/python3.6/distutils/cmd.py', 'PYMODULE'),
  ('setuptools.wheel',
   '/home/wmolewnce/.local/lib/python3.6/site-packages/setuptools/wheel.py',
   'PYMODULE'),
  ('setuptools.pep425tags',
   '/home/wmolewnce/.local/lib/python3.6/site-packages/setuptools/pep425tags.py',
   'PYMODULE'),
  ('setuptools.glibc',
   '/home/wmolewnce/.local/lib/python3.6/site-packages/setuptools/glibc.py',
   'PYMODULE'),
  ('setuptools.package_index',
   '/home/wmolewnce/.local/lib/python3.6/site-packages/setuptools/package_index.py',
   'PYMODULE'),
  ('setuptools.ssl_support',
   '/home/wmolewnce/.local/lib/python3.6/site-packages/setuptools/ssl_support.py',
   'PYMODULE'),
  ('setuptools.archive_util',
   '/home/wmolewnce/.local/lib/python3.6/site-packages/setuptools/archive_util.py',
   'PYMODULE'),
  ('setuptools.py27compat',
   '/home/wmolewnce/.local/lib/python3.6/site-packages/setuptools/py27compat.py',
   'PYMODULE'),
  ('setuptools.sandbox',
   '/home/wmolewnce/.local/lib/python3.6/site-packages/setuptools/sandbox.py',
   'PYMODULE'),
  ('configparser', '/usr/lib/python3.6/configparser.py', 'PYMODULE'),
  ('site',
   '/home/wmolewnce/.local/lib/python3.6/site-packages/PyInstaller/fake-modules/site.py',
   'PYMODULE'),
  ('distutils.command.build_scripts',
   '/usr/lib/python3.6/distutils/command/build_scripts.py',
   'PYMODULE'),
  ('distutils.command',
   '/usr/lib/python3.6/distutils/command/__init__.py',
   'PYMODULE'),
  ('distutils.command.install',
   '/usr/lib/python3.6/distutils/command/install.py',
   'PYMODULE'),
  ('distutils.command.install_scripts',
   '/usr/lib/python3.6/distutils/command/install_scripts.py',
   'PYMODULE'),
  ('distutils.command.bdist',
   '/usr/lib/python3.6/distutils/command/bdist.py',
   'PYMODULE'),
  ('setuptools.command.setopt',
   '/home/wmolewnce/.local/lib/python3.6/site-packages/setuptools/command/setopt.py',
   'PYMODULE'),
  ('setuptools.command.sdist',
   '/home/wmolewnce/.local/lib/python3.6/site-packages/setuptools/command/sdist.py',
   'PYMODULE'),
  ('setuptools.command.py36compat',
   '/home/wmolewnce/.local/lib/python3.6/site-packages/setuptools/command/py36compat.py',
   'PYMODULE'),
  ('distutils.command.sdist',
   '/usr/lib/python3.6/distutils/command/sdist.py',
   'PYMODULE'),
  ('setuptools',
   '/home/wmolewnce/.local/lib/python3.6/site-packages/setuptools/__init__.py',
   'PYMODULE'),
  ('setuptools._vendor.packaging.utils',
   '/home/wmolewnce/.local/lib/python3.6/site-packages/setuptools/_vendor/packaging/utils.py',
   'PYMODULE'),
  ('setuptools._vendor.six',
   '/home/wmolewnce/.local/lib/python3.6/site-packages/setuptools/_vendor/six.py',
   'PYMODULE'),
  ('setuptools._vendor.packaging',
   '/home/wmolewnce/.local/lib/python3.6/site-packages/setuptools/_vendor/packaging/__init__.py',
   'PYMODULE'),
  ('setuptools._vendor.packaging._compat',
   '/home/wmolewnce/.local/lib/python3.6/site-packages/setuptools/_vendor/packaging/_compat.py',
   'PYMODULE'),
  ('setuptools._vendor.packaging.version',
   '/home/wmolewnce/.local/lib/python3.6/site-packages/setuptools/_vendor/packaging/version.py',
   'PYMODULE'),
  ('setuptools._vendor',
   '/home/wmolewnce/.local/lib/python3.6/site-packages/setuptools/_vendor/__init__.py',
   'PYMODULE'),
  ('setuptools._vendor.packaging.requirements',
   '/home/wmolewnce/.local/lib/python3.6/site-packages/setuptools/_vendor/packaging/requirements.py',
   'PYMODULE'),
  ('setuptools._vendor.pyparsing',
   '/home/wmolewnce/.local/lib/python3.6/site-packages/setuptools/_vendor/pyparsing.py',
   'PYMODULE'),
  ('setuptools._vendor.packaging.specifiers',
   '/home/wmolewnce/.local/lib/python3.6/site-packages/setuptools/_vendor/packaging/specifiers.py',
   'PYMODULE'),
  ('setuptools._vendor.packaging._structures',
   '/home/wmolewnce/.local/lib/python3.6/site-packages/setuptools/_vendor/packaging/_structures.py',
   'PYMODULE'),
  ('setuptools._vendor.packaging.__about__',
   '/home/wmolewnce/.local/lib/python3.6/site-packages/setuptools/_vendor/packaging/__about__.py',
   'PYMODULE'),
  ('setuptools._vendor.packaging.markers',
   '/home/wmolewnce/.local/lib/python3.6/site-packages/setuptools/_vendor/packaging/markers.py',
   'PYMODULE'),
  ('setuptools.msvc',
   '/home/wmolewnce/.local/lib/python3.6/site-packages/setuptools/msvc.py',
   'PYMODULE'),
  ('distutils.msvc9compiler',
   '/usr/lib/python3.6/distutils/msvc9compiler.py',
   'PYMODULE'),
  ('distutils.command.build_ext',
   '/usr/lib/python3.6/distutils/command/build_ext.py',
   'PYMODULE'),
  ('distutils._msvccompiler',
   '/usr/lib/python3.6/distutils/_msvccompiler.py',
   'PYMODULE'),
  ('concurrent.futures',
   '/usr/lib/python3.6/concurrent/futures/__init__.py',
   'PYMODULE'),
  ('concurrent.futures.thread',
   '/usr/lib/python3.6/concurrent/futures/thread.py',
   'PYMODULE'),
  ('concurrent.futures.process',
   '/usr/lib/python3.6/concurrent/futures/process.py',
   'PYMODULE'),
  ('concurrent.futures._base',
   '/usr/lib/python3.6/concurrent/futures/_base.py',
   'PYMODULE'),
  ('concurrent', '/usr/lib/python3.6/concurrent/__init__.py', 'PYMODULE'),
  ('setuptools.namespaces',
   '/home/wmolewnce/.local/lib/python3.6/site-packages/setuptools/namespaces.py',
   'PYMODULE'),
  ('setuptools.version',
   '/home/wmolewnce/.local/lib/python3.6/site-packages/setuptools/version.py',
   'PYMODULE'),
  ('setuptools._deprecation_warning',
   '/home/wmolewnce/.local/lib/python3.6/site-packages/setuptools/_deprecation_warning.py',
   'PYMODULE'),
  ('setuptools.extern',
   '/home/wmolewnce/.local/lib/python3.6/site-packages/setuptools/extern/__init__.py',
   'PYMODULE'),
  ('numpy.distutils.command.develop',
   '/home/wmolewnce/.local/lib/python3.6/site-packages/numpy/distutils/command/develop.py',
   'PYMODULE'),
  ('setuptools.command.develop',
   '/home/wmolewnce/.local/lib/python3.6/site-packages/setuptools/command/develop.py',
   'PYMODULE'),
  ('numpy.distutils.command.install_clib',
   '/home/wmolewnce/.local/lib/python3.6/site-packages/numpy/distutils/command/install_clib.py',
   'PYMODULE'),
  ('numpy.distutils.command.bdist_rpm',
   '/home/wmolewnce/.local/lib/python3.6/site-packages/numpy/distutils/command/bdist_rpm.py',
   'PYMODULE'),
  ('distutils.command.bdist_rpm',
   '/usr/lib/python3.6/distutils/command/bdist_rpm.py',
   'PYMODULE'),
  ('setuptools.command.bdist_rpm',
   '/home/wmolewnce/.local/lib/python3.6/site-packages/setuptools/command/bdist_rpm.py',
   'PYMODULE'),
  ('numpy.distutils.command.install',
   '/home/wmolewnce/.local/lib/python3.6/site-packages/numpy/distutils/command/install.py',
   'PYMODULE'),
  ('setuptools.command.install',
   '/home/wmolewnce/.local/lib/python3.6/site-packages/setuptools/command/install.py',
   'PYMODULE'),
  ('numpy.distutils.command.install_headers',
   '/home/wmolewnce/.local/lib/python3.6/site-packages/numpy/distutils/command/install_headers.py',
   'PYMODULE'),
  ('distutils.command.install_headers',
   '/usr/lib/python3.6/distutils/command/install_headers.py',
   'PYMODULE'),
  ('numpy.distutils.command.install_data',
   '/home/wmolewnce/.local/lib/python3.6/site-packages/numpy/distutils/command/install_data.py',
   'PYMODULE'),
  ('distutils.command.install_data',
   '/usr/lib/python3.6/distutils/command/install_data.py',
   'PYMODULE'),
  ('numpy.distutils.command.sdist',
   '/home/wmolewnce/.local/lib/python3.6/site-packages/numpy/distutils/command/sdist.py',
   'PYMODULE'),
  ('numpy.distutils.command.build_scripts',
   '/home/wmolewnce/.local/lib/python3.6/site-packages/numpy/distutils/command/build_scripts.py',
   'PYMODULE'),
  ('numpy.distutils.command.build_clib',
   '/home/wmolewnce/.local/lib/python3.6/site-packages/numpy/distutils/command/build_clib.py',
   'PYMODULE'),
  ('distutils.command.build_clib',
   '/usr/lib/python3.6/distutils/command/build_clib.py',
   'PYMODULE'),
  ('numpy.distutils.command.build_ext',
   '/home/wmolewnce/.local/lib/python3.6/site-packages/numpy/distutils/command/build_ext.py',
   'PYMODULE'),
  ('numpy.distutils.system_info',
   '/home/wmolewnce/.local/lib/python3.6/site-packages/numpy/distutils/system_info.py',
   'PYMODULE'),
  ('numpy.f2py',
   '/home/wmolewnce/.local/lib/python3.6/site-packages/numpy/f2py/__init__.py',
   'PYMODULE'),
  ('numpy.f2py.diagnose',
   '/home/wmolewnce/.local/lib/python3.6/site-packages/numpy/f2py/diagnose.py',
   'PYMODULE'),
  ('numpy.f2py.f2py_testing',
   '/home/wmolewnce/.local/lib/python3.6/site-packages/numpy/f2py/f2py_testing.py',
   'PYMODULE'),
  ('numpy.testing',
   '/home/wmolewnce/.local/lib/python3.6/site-packages/numpy/testing/__init__.py',
   'PYMODULE'),
  ('numpy.testing._private.nosetester',
   '/home/wmolewnce/.local/lib/python3.6/site-packages/numpy/testing/_private/nosetester.py',
   'PYMODULE'),
  ('numpy.testing._private.noseclasses',
   '/home/wmolewnce/.local/lib/python3.6/site-packages/numpy/testing/_private/noseclasses.py',
   'PYMODULE'),
  ('numpy.testing._private.decorators',
   '/home/wmolewnce/.local/lib/python3.6/site-packages/numpy/testing/_private/decorators.py',
   'PYMODULE'),
  ('numpy.testing._private.parameterized',
   '/home/wmolewnce/.local/lib/python3.6/site-packages/numpy/testing/_private/parameterized.py',
   'PYMODULE'),
  ('numpy.testing._private',
   '/home/wmolewnce/.local/lib/python3.6/site-packages/numpy/testing/_private/__init__.py',
   'PYMODULE'),
  ('numpy.testing._private.utils',
   '/home/wmolewnce/.local/lib/python3.6/site-packages/numpy/testing/_private/utils.py',
   'PYMODULE'),
  ('numpy.lib',
   '/home/wmolewnce/.local/lib/python3.6/site-packages/numpy/lib/__init__.py',
   'PYMODULE'),
  ('numpy.lib._version',
   '/home/wmolewnce/.local/lib/python3.6/site-packages/numpy/lib/_version.py',
   'PYMODULE'),
  ('numpy.lib.arraypad',
   '/home/wmolewnce/.local/lib/python3.6/site-packages/numpy/lib/arraypad.py',
   'PYMODULE'),
  ('numpy.lib.arrayterator',
   '/home/wmolewnce/.local/lib/python3.6/site-packages/numpy/lib/arrayterator.py',
   'PYMODULE'),
  ('numpy.lib.financial',
   '/home/wmolewnce/.local/lib/python3.6/site-packages/numpy/lib/financial.py',
   'PYMODULE'),
  ('numpy.lib.npyio',
   '/home/wmolewnce/.local/lib/python3.6/site-packages/numpy/lib/npyio.py',
   'PYMODULE'),
  ('numpy.lib._iotools',
   '/home/wmolewnce/.local/lib/python3.6/site-packages/numpy/lib/_iotools.py',
   'PYMODULE'),
  ('numpy.lib._datasource',
   '/home/wmolewnce/.local/lib/python3.6/site-packages/numpy/lib/_datasource.py',
   'PYMODULE'),
  ('numpy.lib.format',
   '/home/wmolewnce/.local/lib/python3.6/site-packages/numpy/lib/format.py',
   'PYMODULE'),
  ('numpy.lib.arraysetops',
   '/home/wmolewnce/.local/lib/python3.6/site-packages/numpy/lib/arraysetops.py',
   'PYMODULE'),
  ('numpy.lib.polynomial',
   '/home/wmolewnce/.local/lib/python3.6/site-packages/numpy/lib/polynomial.py',
   'PYMODULE'),
  ('numpy.linalg',
   '/home/wmolewnce/.local/lib/python3.6/site-packages/numpy/linalg/__init__.py',
   'PYMODULE'),
  ('numpy.linalg.linalg',
   '/home/wmolewnce/.local/lib/python3.6/site-packages/numpy/linalg/linalg.py',
   'PYMODULE'),
  ('numpy.linalg.info',
   '/home/wmolewnce/.local/lib/python3.6/site-packages/numpy/linalg/info.py',
   'PYMODULE'),
  ('numpy.lib.scimath',
   '/home/wmolewnce/.local/lib/python3.6/site-packages/numpy/lib/scimath.py',
   'PYMODULE'),
  ('numpy.lib.histograms',
   '/home/wmolewnce/.local/lib/python3.6/site-packages/numpy/lib/histograms.py',
   'PYMODULE'),
  ('numpy.compat.py3k',
   '/home/wmolewnce/.local/lib/python3.6/site-packages/numpy/compat/py3k.py',
   'PYMODULE'),
  ('pathlib', '/usr/lib/python3.6/pathlib.py', 'PYMODULE'),
  ('numpy.lib.ufunclike',
   '/home/wmolewnce/.local/lib/python3.6/site-packages/numpy/lib/ufunclike.py',
   'PYMODULE'),
  ('numpy.lib.twodim_base',
   '/home/wmolewnce/.local/lib/python3.6/site-packages/numpy/lib/twodim_base.py',
   'PYMODULE'),
  ('numpy.lib.stride_tricks',
   '/home/wmolewnce/.local/lib/python3.6/site-packages/numpy/lib/stride_tricks.py',
   'PYMODULE'),
  ('numpy.lib.shape_base',
   '/home/wmolewnce/.local/lib/python3.6/site-packages/numpy/lib/shape_base.py',
   'PYMODULE'),
  ('numpy.matrixlib.defmatrix',
   '/home/wmolewnce/.local/lib/python3.6/site-packages/numpy/matrixlib/defmatrix.py',
   'PYMODULE'),
  ('numpy.matrixlib',
   '/home/wmolewnce/.local/lib/python3.6/site-packages/numpy/matrixlib/__init__.py',
   'PYMODULE'),
  ('numpy.dual',
   '/home/wmolewnce/.local/lib/python3.6/site-packages/numpy/dual.py',
   'PYMODULE'),
  ('numpy.fft',
   '/home/wmolewnce/.local/lib/python3.6/site-packages/numpy/fft/__init__.py',
   'PYMODULE'),
  ('numpy.fft.helper',
   '/home/wmolewnce/.local/lib/python3.6/site-packages/numpy/fft/helper.py',
   'PYMODULE'),
  ('numpy.fft.fftpack',
   '/home/wmolewnce/.local/lib/python3.6/site-packages/numpy/fft/fftpack.py',
   'PYMODULE'),
  ('numpy.fft.info',
   '/home/wmolewnce/.local/lib/python3.6/site-packages/numpy/fft/info.py',
   'PYMODULE'),
  ('numpy.lib.nanfunctions',
   '/home/wmolewnce/.local/lib/python3.6/site-packages/numpy/lib/nanfunctions.py',
   'PYMODULE'),
  ('numpy.lib.function_base',
   '/home/wmolewnce/.local/lib/python3.6/site-packages/numpy/lib/function_base.py',
   'PYMODULE'),
  ('numpy.lib.index_tricks',
   '/home/wmolewnce/.local/lib/python3.6/site-packages/numpy/lib/index_tricks.py',
   'PYMODULE'),
  ('numpy.lib.type_check',
   '/home/wmolewnce/.local/lib/python3.6/site-packages/numpy/lib/type_check.py',
   'PYMODULE'),
  ('numpy.lib.info',
   '/home/wmolewnce/.local/lib/python3.6/site-packages/numpy/lib/info.py',
   'PYMODULE'),
  ('numpy.lib.utils',
   '/home/wmolewnce/.local/lib/python3.6/site-packages/numpy/lib/utils.py',
   'PYMODULE'),
  ('numpy.f2py.f2py2e',
   '/home/wmolewnce/.local/lib/python3.6/site-packages/numpy/f2py/f2py2e.py',
   'PYMODULE'),
  ('numpy.distutils.command.build_src',
   '/home/wmolewnce/.local/lib/python3.6/site-packages/numpy/distutils/command/build_src.py',
   'PYMODULE'),
  ('numpy.distutils.conv_template',
   '/home/wmolewnce/.local/lib/python3.6/site-packages/numpy/distutils/conv_template.py',
   'PYMODULE'),
  ('numpy.distutils.from_template',
   '/home/wmolewnce/.local/lib/python3.6/site-packages/numpy/distutils/from_template.py',
   'PYMODULE'),
  ('numpy.f2py.auxfuncs',
   '/home/wmolewnce/.local/lib/python3.6/site-packages/numpy/f2py/auxfuncs.py',
   'PYMODULE'),
  ('numpy.f2py.f90mod_rules',
   '/home/wmolewnce/.local/lib/python3.6/site-packages/numpy/f2py/f90mod_rules.py',
   'PYMODULE'),
  ('numpy.f2py.rules',
   '/home/wmolewnce/.local/lib/python3.6/site-packages/numpy/f2py/rules.py',
   'PYMODULE'),
  ('numpy.f2py.use_rules',
   '/home/wmolewnce/.local/lib/python3.6/site-packages/numpy/f2py/use_rules.py',
   'PYMODULE'),
  ('numpy.f2py.common_rules',
   '/home/wmolewnce/.local/lib/python3.6/site-packages/numpy/f2py/common_rules.py',
   'PYMODULE'),
  ('numpy.f2py.func2subr',
   '/home/wmolewnce/.local/lib/python3.6/site-packages/numpy/f2py/func2subr.py',
   'PYMODULE'),
  ('numpy.f2py.crackfortran',
   '/home/wmolewnce/.local/lib/python3.6/site-packages/numpy/f2py/crackfortran.py',
   'PYMODULE'),
  ('fileinput', '/usr/lib/python3.6/fileinput.py', 'PYMODULE'),
  ('numpy.f2py.cb_rules',
   '/home/wmolewnce/.local/lib/python3.6/site-packages/numpy/f2py/cb_rules.py',
   'PYMODULE'),
  ('numpy.f2py.capi_maps',
   '/home/wmolewnce/.local/lib/python3.6/site-packages/numpy/f2py/capi_maps.py',
   'PYMODULE'),
  ('numpy.f2py.cfuncs',
   '/home/wmolewnce/.local/lib/python3.6/site-packages/numpy/f2py/cfuncs.py',
   'PYMODULE'),
  ('numpy.f2py.__version__',
   '/home/wmolewnce/.local/lib/python3.6/site-packages/numpy/f2py/__version__.py',
   'PYMODULE'),
  ('numpy.distutils.command.build_py',
   '/home/wmolewnce/.local/lib/python3.6/site-packages/numpy/distutils/command/build_py.py',
   'PYMODULE'),
  ('distutils.command.build_py',
   '/usr/lib/python3.6/distutils/command/build_py.py',
   'PYMODULE'),
  ('numpy.distutils.command.build',
   '/home/wmolewnce/.local/lib/python3.6/site-packages/numpy/distutils/command/build.py',
   'PYMODULE'),
  ('distutils.command.build',
   '/usr/lib/python3.6/distutils/command/build.py',
   'PYMODULE'),
  ('numpy.distutils.command.config',
   '/home/wmolewnce/.local/lib/python3.6/site-packages/numpy/distutils/command/config.py',
   'PYMODULE'),
  ('numpy.distutils.command.autodist',
   '/home/wmolewnce/.local/lib/python3.6/site-packages/numpy/distutils/command/autodist.py',
   'PYMODULE'),
  ('numpy.distutils.mingw32ccompiler',
   '/home/wmolewnce/.local/lib/python3.6/site-packages/numpy/distutils/mingw32ccompiler.py',
   'PYMODULE'),
  ('distutils.msvccompiler',
   '/usr/lib/python3.6/distutils/msvccompiler.py',
   'PYMODULE'),
  ('distutils.unixccompiler',
   '/usr/lib/python3.6/distutils/unixccompiler.py',
   'PYMODULE'),
  ('distutils.cygwinccompiler',
   '/usr/lib/python3.6/distutils/cygwinccompiler.py',
   'PYMODULE'),
  ('distutils.command.config',
   '/usr/lib/python3.6/distutils/command/config.py',
   'PYMODULE'),
  ('distutils.core', '/usr/lib/python3.6/distutils/core.py', 'PYMODULE'),
  ('distutils.config', '/usr/lib/python3.6/distutils/config.py', 'PYMODULE'),
  ('cgi', '/usr/lib/python3.6/cgi.py', 'PYMODULE'),
  ('distutils.dist', '/usr/lib/python3.6/distutils/dist.py', 'PYMODULE'),
  ('distutils.versionpredicate',
   '/usr/lib/python3.6/distutils/versionpredicate.py',
   'PYMODULE'),
  ('numpy.distutils.core',
   '/home/wmolewnce/.local/lib/python3.6/site-packages/numpy/distutils/core.py',
   'PYMODULE'),
  ('numpy.distutils.numpy_distribution',
   '/home/wmolewnce/.local/lib/python3.6/site-packages/numpy/distutils/numpy_distribution.py',
   'PYMODULE'),
  ('numpy.distutils.extension',
   '/home/wmolewnce/.local/lib/python3.6/site-packages/numpy/distutils/extension.py',
   'PYMODULE'),
  ('numpy.distutils.fcompiler.environment',
   '/home/wmolewnce/.local/lib/python3.6/site-packages/numpy/distutils/fcompiler/environment.py',
   'PYMODULE'),
  ('numpy.distutils.exec_command',
   '/home/wmolewnce/.local/lib/python3.6/site-packages/numpy/distutils/exec_command.py',
   'PYMODULE'),
  ('numpy.distutils.misc_util',
   '/home/wmolewnce/.local/lib/python3.6/site-packages/numpy/distutils/misc_util.py',
   'PYMODULE'),
  ('curses', '/usr/lib/python3.6/curses/__init__.py', 'PYMODULE'),
  ('curses.has_key', '/usr/lib/python3.6/curses/has_key.py', 'PYMODULE'),
  ('numpy.distutils.__config__',
   '/home/wmolewnce/.local/lib/python3.6/site-packages/numpy/distutils/__config__.py',
   'PYMODULE'),
  ('numpy.distutils.npy_pkg_config',
   '/home/wmolewnce/.local/lib/python3.6/site-packages/numpy/distutils/npy_pkg_config.py',
   'PYMODULE'),
  ('numpy.distutils.info',
   '/home/wmolewnce/.local/lib/python3.6/site-packages/numpy/distutils/info.py',
   'PYMODULE'),
  ('numpy.distutils.unixccompiler',
   '/home/wmolewnce/.local/lib/python3.6/site-packages/numpy/distutils/unixccompiler.py',
   'PYMODULE'),
  ('numpy.distutils.ccompiler',
   '/home/wmolewnce/.local/lib/python3.6/site-packages/numpy/distutils/ccompiler.py',
   'PYMODULE'),
  ('numpy.distutils.lib2def',
   '/home/wmolewnce/.local/lib/python3.6/site-packages/numpy/distutils/lib2def.py',
   'PYMODULE'),
  ('numpy.distutils.log',
   '/home/wmolewnce/.local/lib/python3.6/site-packages/numpy/distutils/log.py',
   'PYMODULE'),
  ('numpy.distutils.__version__',
   '/home/wmolewnce/.local/lib/python3.6/site-packages/numpy/distutils/__version__.py',
   'PYMODULE'),
  ('numpy.core._dtype',
   '/home/wmolewnce/.local/lib/python3.6/site-packages/numpy/core/_dtype.py',
   'PYMODULE'),
  ('numpy.core._dtype_ctypes',
   '/home/wmolewnce/.local/lib/python3.6/site-packages/numpy/core/_dtype_ctypes.py',
   'PYMODULE'),
  ('numpy.core._add_newdocs',
   '/home/wmolewnce/.local/lib/python3.6/site-packages/numpy/core/_add_newdocs.py',
   'PYMODULE'),
  ('numpy.core.einsumfunc',
   '/home/wmolewnce/.local/lib/python3.6/site-packages/numpy/core/einsumfunc.py',
   'PYMODULE'),
  ('numpy.core.shape_base',
   '/home/wmolewnce/.local/lib/python3.6/site-packages/numpy/core/shape_base.py',
   'PYMODULE'),
  ('numpy.core.getlimits',
   '/home/wmolewnce/.local/lib/python3.6/site-packages/numpy/core/getlimits.py',
   'PYMODULE'),
  ('numpy.core.machar',
   '/home/wmolewnce/.local/lib/python3.6/site-packages/numpy/core/machar.py',
   'PYMODULE'),
  ('numpy.core.function_base',
   '/home/wmolewnce/.local/lib/python3.6/site-packages/numpy/core/function_base.py',
   'PYMODULE'),
  ('numpy.core.memmap',
   '/home/wmolewnce/.local/lib/python3.6/site-packages/numpy/core/memmap.py',
   'PYMODULE'),
  ('numpy.core.defchararray',
   '/home/wmolewnce/.local/lib/python3.6/site-packages/numpy/core/defchararray.py',
   'PYMODULE'),
  ('numpy.version',
   '/home/wmolewnce/.local/lib/python3.6/site-packages/numpy/version.py',
   'PYMODULE'),
  ('numpy.core.info',
   '/home/wmolewnce/.local/lib/python3.6/site-packages/numpy/core/info.py',
   'PYMODULE'),
  ('numpy.compat',
   '/home/wmolewnce/.local/lib/python3.6/site-packages/numpy/compat/__init__.py',
   'PYMODULE'),
  ('numpy.core.numerictypes',
   '/home/wmolewnce/.local/lib/python3.6/site-packages/numpy/core/numerictypes.py',
   'PYMODULE'),
  ('numpy.core._type_aliases',
   '/home/wmolewnce/.local/lib/python3.6/site-packages/numpy/core/_type_aliases.py',
   'PYMODULE'),
  ('numpy.core._string_helpers',
   '/home/wmolewnce/.local/lib/python3.6/site-packages/numpy/core/_string_helpers.py',
   'PYMODULE'),
  ('pandas.core.panel',
   '/home/wmolewnce/.local/lib/python3.6/site-packages/pandas/core/panel.py',
   'PYMODULE'),
  ('pandas.io.excel',
   '/home/wmolewnce/.local/lib/python3.6/site-packages/pandas/io/excel.py',
   'PYMODULE'),
  ('pandas.plotting._core',
   '/home/wmolewnce/.local/lib/python3.6/site-packages/pandas/plotting/_core.py',
   'PYMODULE'),
  ('pandas.plotting._timeseries',
   '/home/wmolewnce/.local/lib/python3.6/site-packages/pandas/plotting/_timeseries.py',
   'PYMODULE'),
  ('pandas.tseries.offsets',
   '/home/wmolewnce/.local/lib/python3.6/site-packages/pandas/tseries/offsets.py',
   'PYMODULE'),
  ('pandas.tseries',
   '/home/wmolewnce/.local/lib/python3.6/site-packages/pandas/tseries/__init__.py',
   'PYMODULE'),
  ('pandas.plotting._converter',
   '/home/wmolewnce/.local/lib/python3.6/site-packages/pandas/plotting/_converter.py',
   'PYMODULE'),
  ('pandas.plotting._tools',
   '/home/wmolewnce/.local/lib/python3.6/site-packages/pandas/plotting/_tools.py',
   'PYMODULE'),
  ('pandas.plotting._style',
   '/home/wmolewnce/.local/lib/python3.6/site-packages/pandas/plotting/_style.py',
   'PYMODULE'),
  ('pandas.plotting._compat',
   '/home/wmolewnce/.local/lib/python3.6/site-packages/pandas/plotting/_compat.py',
   'PYMODULE'),
  ('pandas.plotting',
   '/home/wmolewnce/.local/lib/python3.6/site-packages/pandas/plotting/__init__.py',
   'PYMODULE'),
  ('pandas.plotting._misc',
   '/home/wmolewnce/.local/lib/python3.6/site-packages/pandas/plotting/_misc.py',
   'PYMODULE'),
  ('pandas.io.formats.console',
   '/home/wmolewnce/.local/lib/python3.6/site-packages/pandas/io/formats/console.py',
   'PYMODULE'),
  ('pandas.core.internals.construction',
   '/home/wmolewnce/.local/lib/python3.6/site-packages/pandas/core/internals/construction.py',
   'PYMODULE'),
  ('pandas.core.accessor',
   '/home/wmolewnce/.local/lib/python3.6/site-packages/pandas/core/accessor.py',
   'PYMODULE'),
  ('numpy.ma',
   '/home/wmolewnce/.local/lib/python3.6/site-packages/numpy/ma/__init__.py',
   'PYMODULE'),
  ('numpy.ma.extras',
   '/home/wmolewnce/.local/lib/python3.6/site-packages/numpy/ma/extras.py',
   'PYMODULE'),
  ('numpy.ma.core',
   '/home/wmolewnce/.local/lib/python3.6/site-packages/numpy/ma/core.py',
   'PYMODULE'),
  ('pandas.core.groupby.generic',
   '/home/wmolewnce/.local/lib/python3.6/site-packages/pandas/core/groupby/generic.py',
   'PYMODULE'),
  ('pandas.core.tools.datetimes',
   '/home/wmolewnce/.local/lib/python3.6/site-packages/pandas/core/tools/datetimes.py',
   'PYMODULE'),
  ('pandas.core.resample',
   '/home/wmolewnce/.local/lib/python3.6/site-packages/pandas/core/resample.py',
   'PYMODULE'),
  ('pandas.core.indexes.timedeltas',
   '/home/wmolewnce/.local/lib/python3.6/site-packages/pandas/core/indexes/timedeltas.py',
   'PYMODULE'),
  ('pandas.core.indexes.datetimelike',
   '/home/wmolewnce/.local/lib/python3.6/site-packages/pandas/core/indexes/datetimelike.py',
   'PYMODULE'),
  ('pandas.core.tools.timedeltas',
   '/home/wmolewnce/.local/lib/python3.6/site-packages/pandas/core/tools/timedeltas.py',
   'PYMODULE'),
  ('pandas.core.groupby.groupby',
   '/home/wmolewnce/.local/lib/python3.6/site-packages/pandas/core/groupby/groupby.py',
   'PYMODULE'),
  ('pandas.io.formats.csvs',
   '/home/wmolewnce/.local/lib/python3.6/site-packages/pandas/io/formats/csvs.py',
   'PYMODULE'),
  ('pandas.io.clipboards',
   '/home/wmolewnce/.local/lib/python3.6/site-packages/pandas/io/clipboards.py',
   'PYMODULE'),
  ('pandas.io.clipboard',
   '/home/wmolewnce/.local/lib/python3.6/site-packages/pandas/io/clipboard/__init__.py',
   'PYMODULE'),
  ('pandas.io.clipboard.windows',
   '/home/wmolewnce/.local/lib/python3.6/site-packages/pandas/io/clipboard/windows.py',
   'PYMODULE'),
  ('pandas.io.clipboard.exceptions',
   '/home/wmolewnce/.local/lib/python3.6/site-packages/pandas/io/clipboard/exceptions.py',
   'PYMODULE'),
  ('pandas.io.clipboard.clipboards',
   '/home/wmolewnce/.local/lib/python3.6/site-packages/pandas/io/clipboard/clipboards.py',
   'PYMODULE'),
  ('pandas.io.pickle',
   '/home/wmolewnce/.local/lib/python3.6/site-packages/pandas/io/pickle.py',
   'PYMODULE'),
  ('pandas.compat.pickle_compat',
   '/home/wmolewnce/.local/lib/python3.6/site-packages/pandas/compat/pickle_compat.py',
   'PYMODULE'),
  ('pandas.io.sql',
   '/home/wmolewnce/.local/lib/python3.6/site-packages/pandas/io/sql.py',
   'PYMODULE'),
  ('sqlite3', '/usr/lib/python3.6/sqlite3/__init__.py', 'PYMODULE'),
  ('sqlite3.dump', '/usr/lib/python3.6/sqlite3/dump.py', 'PYMODULE'),
  ('sqlite3.dbapi2', '/usr/lib/python3.6/sqlite3/dbapi2.py', 'PYMODULE'),
  ('pandas.io.packers',
   '/home/wmolewnce/.local/lib/python3.6/site-packages/pandas/io/packers.py',
   'PYMODULE'),
  ('pandas.io.msgpack',
   '/home/wmolewnce/.local/lib/python3.6/site-packages/pandas/io/msgpack/__init__.py',
   'PYMODULE'),
  ('pandas.io.msgpack._version',
   '/home/wmolewnce/.local/lib/python3.6/site-packages/pandas/io/msgpack/_version.py',
   'PYMODULE'),
  ('pandas.io.msgpack.exceptions',
   '/home/wmolewnce/.local/lib/python3.6/site-packages/pandas/io/msgpack/exceptions.py',
   'PYMODULE'),
  ('pandas.util',
   '/home/wmolewnce/.local/lib/python3.6/site-packages/pandas/util/__init__.py',
   'PYMODULE'),
  ('pandas.io.pytables',
   '/home/wmolewnce/.local/lib/python3.6/site-packages/pandas/io/pytables.py',
   'PYMODULE'),
  ('pandas.core.computation.pytables',
   '/home/wmolewnce/.local/lib/python3.6/site-packages/pandas/core/computation/pytables.py',
   'PYMODULE'),
  ('pandas.io.json',
   '/home/wmolewnce/.local/lib/python3.6/site-packages/pandas/io/json/__init__.py',
   'PYMODULE'),
  ('pandas.io.json.table_schema',
   '/home/wmolewnce/.local/lib/python3.6/site-packages/pandas/io/json/table_schema.py',
   'PYMODULE'),
  ('pandas.io.json.normalize',
   '/home/wmolewnce/.local/lib/python3.6/site-packages/pandas/io/json/normalize.py',
   'PYMODULE'),
  ('pandas.io.json.json',
   '/home/wmolewnce/.local/lib/python3.6/site-packages/pandas/io/json/json.py',
   'PYMODULE'),
  ('pandas.io',
   '/home/wmolewnce/.local/lib/python3.6/site-packages/pandas/io/__init__.py',
   'PYMODULE'),
  ('pandas.io.gcs',
   '/home/wmolewnce/.local/lib/python3.6/site-packages/pandas/io/gcs.py',
   'PYMODULE'),
  ('pandas.io.s3',
   '/home/wmolewnce/.local/lib/python3.6/site-packages/pandas/io/s3.py',
   'PYMODULE'),
  ('pandas.io.formats.excel',
   '/home/wmolewnce/.local/lib/python3.6/site-packages/pandas/io/formats/excel.py',
   'PYMODULE'),
  ('pandas.io.formats.css',
   '/home/wmolewnce/.local/lib/python3.6/site-packages/pandas/io/formats/css.py',
   'PYMODULE'),
  ('pandas.tseries.frequencies',
   '/home/wmolewnce/.local/lib/python3.6/site-packages/pandas/tseries/frequencies.py',
   'PYMODULE'),
  ('pytz',
   '/home/wmolewnce/.local/lib/python3.6/site-packages/pytz/__init__.py',
   'PYMODULE'),
  ('pytz.tzfile',
   '/home/wmolewnce/.local/lib/python3.6/site-packages/pytz/tzfile.py',
   'PYMODULE'),
  ('pytz.tzinfo',
   '/home/wmolewnce/.local/lib/python3.6/site-packages/pytz/tzinfo.py',
   'PYMODULE'),
  ('pytz.lazy',
   '/home/wmolewnce/.local/lib/python3.6/site-packages/pytz/lazy.py',
   'PYMODULE'),
  ('pytz.exceptions',
   '/home/wmolewnce/.local/lib/python3.6/site-packages/pytz/exceptions.py',
   'PYMODULE'),
  ('pandas.core.indexes.period',
   '/home/wmolewnce/.local/lib/python3.6/site-packages/pandas/core/indexes/period.py',
   'PYMODULE'),
  ('pandas.core.reshape',
   '/home/wmolewnce/.local/lib/python3.6/site-packages/pandas/core/reshape/__init__.py',
   'PYMODULE'),
  ('pandas.io.formats.terminal',
   '/home/wmolewnce/.local/lib/python3.6/site-packages/pandas/io/formats/terminal.py',
   'PYMODULE'),
  ('pandas.io.common',
   '/home/wmolewnce/.local/lib/python3.6/site-packages/pandas/io/common.py',
   'PYMODULE'),
  ('pandas.core.indexes.datetimes',
   '/home/wmolewnce/.local/lib/python3.6/site-packages/pandas/core/indexes/datetimes.py',
   'PYMODULE'),
  ('pandas.core.base',
   '/home/wmolewnce/.local/lib/python3.6/site-packages/pandas/core/base.py',
   'PYMODULE'),
  ('pandas.io.formats',
   '/home/wmolewnce/.local/lib/python3.6/site-packages/pandas/io/formats/__init__.py',
   'PYMODULE'),
  ('pandas.core.reshape.util',
   '/home/wmolewnce/.local/lib/python3.6/site-packages/pandas/core/reshape/util.py',
   'PYMODULE'),
  ('pandas.io.formats.printing',
   '/home/wmolewnce/.local/lib/python3.6/site-packages/pandas/io/formats/printing.py',
   'PYMODULE'),
  ('pandas.core.indexes.frozen',
   '/home/wmolewnce/.local/lib/python3.6/site-packages/pandas/core/indexes/frozen.py',
   'PYMODULE'),
  ('pandas.core.indexes.base',
   '/home/wmolewnce/.local/lib/python3.6/site-packages/pandas/core/indexes/base.py',
   'PYMODULE'),
  ('pandas.core.indexes.interval',
   '/home/wmolewnce/.local/lib/python3.6/site-packages/pandas/core/indexes/interval.py',
   'PYMODULE'),
  ('pandas.util._exceptions',
   '/home/wmolewnce/.local/lib/python3.6/site-packages/pandas/util/_exceptions.py',
   'PYMODULE'),
  ('pandas.util._doctools',
   '/home/wmolewnce/.local/lib/python3.6/site-packages/pandas/util/_doctools.py',
   'PYMODULE'),
  ('pandas.core.indexes.category',
   '/home/wmolewnce/.local/lib/python3.6/site-packages/pandas/core/indexes/category.py',
   'PYMODULE'),
  ('pandas.core.indexes.range',
   '/home/wmolewnce/.local/lib/python3.6/site-packages/pandas/core/indexes/range.py',
   'PYMODULE'),
  ('pandas.core.strings',
   '/home/wmolewnce/.local/lib/python3.6/site-packages/pandas/core/strings.py',
   'PYMODULE'),
  ('pandas.core.config',
   '/home/wmolewnce/.local/lib/python3.6/site-packages/pandas/core/config.py',
   'PYMODULE'),
  ('pandas.core.indexes.api',
   '/home/wmolewnce/.local/lib/python3.6/site-packages/pandas/core/indexes/api.py',
   'PYMODULE'),
  ('pandas.errors',
   '/home/wmolewnce/.local/lib/python3.6/site-packages/pandas/errors/__init__.py',
   'PYMODULE'),
  ('pandas.core.reshape.tile',
   '/home/wmolewnce/.local/lib/python3.6/site-packages/pandas/core/reshape/tile.py',
   'PYMODULE'),
  ('pandas.core.series',
   '/home/wmolewnce/.local/lib/python3.6/site-packages/pandas/core/series.py',
   'PYMODULE'),
  ('pandas.core.sparse.series',
   '/home/wmolewnce/.local/lib/python3.6/site-packages/pandas/core/sparse/series.py',
   'PYMODULE'),
  ('pandas.core.sparse',
   '/home/wmolewnce/.local/lib/python3.6/site-packages/pandas/core/sparse/__init__.py',
   'PYMODULE'),
  ('pandas.core.sparse.scipy_sparse',
   '/home/wmolewnce/.local/lib/python3.6/site-packages/pandas/core/sparse/scipy_sparse.py',
   'PYMODULE'),
  ('pandas.core.indexes.accessors',
   '/home/wmolewnce/.local/lib/python3.6/site-packages/pandas/core/indexes/accessors.py',
   'PYMODULE'),
  ('pandas.core.sorting',
   '/home/wmolewnce/.local/lib/python3.6/site-packages/pandas/core/sorting.py',
   'PYMODULE'),
  ('pandas.core.common',
   '/home/wmolewnce/.local/lib/python3.6/site-packages/pandas/core/common.py',
   'PYMODULE'),
  ('pandas.core.dtypes.missing',
   '/home/wmolewnce/.local/lib/python3.6/site-packages/pandas/core/dtypes/missing.py',
   'PYMODULE'),
  ('pandas.core.dtypes.common',
   '/home/wmolewnce/.local/lib/python3.6/site-packages/pandas/core/dtypes/common.py',
   'PYMODULE'),
  ('pandas.core.dtypes.cast',
   '/home/wmolewnce/.local/lib/python3.6/site-packages/pandas/core/dtypes/cast.py',
   'PYMODULE'),
  ('pandas.util._decorators',
   '/home/wmolewnce/.local/lib/python3.6/site-packages/pandas/util/_decorators.py',
   'PYMODULE'),
  ('pandas.core.internals.arrays',
   '/home/wmolewnce/.local/lib/python3.6/site-packages/pandas/core/internals/arrays.py',
   'PYMODULE'),
  ('numpy.lib.mixins',
   '/home/wmolewnce/.local/lib/python3.6/site-packages/numpy/lib/mixins.py',
   'PYMODULE'),
  ('pandas.core.missing',
   '/home/wmolewnce/.local/lib/python3.6/site-packages/pandas/core/missing.py',
   'PYMODULE'),
  ('pandas.core.nanops',
   '/home/wmolewnce/.local/lib/python3.6/site-packages/pandas/core/nanops.py',
   'PYMODULE'),
  ('pandas.compat',
   '/home/wmolewnce/.local/lib/python3.6/site-packages/pandas/compat/__init__.py',
   'PYMODULE'),
  ('typing', '/usr/lib/python3.6/typing.py', 'PYMODULE'),
  ('pandas.compat.chainmap',
   '/home/wmolewnce/.local/lib/python3.6/site-packages/pandas/compat/chainmap.py',
   'PYMODULE'),
  ('pandas.compat.chainmap_impl',
   '/home/wmolewnce/.local/lib/python3.6/site-packages/pandas/compat/chainmap_impl.py',
   'PYMODULE'),
  ('pandas.core.dtypes.inference',
   '/home/wmolewnce/.local/lib/python3.6/site-packages/pandas/core/dtypes/inference.py',
   'PYMODULE'),
  ('pandas.core.dtypes.generic',
   '/home/wmolewnce/.local/lib/python3.6/site-packages/pandas/core/dtypes/generic.py',
   'PYMODULE'),
  ('pandas.core.dtypes.dtypes',
   '/home/wmolewnce/.local/lib/python3.6/site-packages/pandas/core/dtypes/dtypes.py',
   'PYMODULE'),
  ('pandas.core.dtypes.base',
   '/home/wmolewnce/.local/lib/python3.6/site-packages/pandas/core/dtypes/base.py',
   'PYMODULE'),
  ('pandas.util._validators',
   '/home/wmolewnce/.local/lib/python3.6/site-packages/pandas/util/_validators.py',
   'PYMODULE'),
  ('pandas.compat.numpy.function',
   '/home/wmolewnce/.local/lib/python3.6/site-packages/pandas/compat/numpy/function.py',
   'PYMODULE'),
  ('numpy',
   '/home/wmolewnce/.local/lib/python3.6/site-packages/numpy/__init__.py',
   'PYMODULE'),
  ('numpy.ctypeslib',
   '/home/wmolewnce/.local/lib/python3.6/site-packages/numpy/ctypeslib.py',
   'PYMODULE'),
  ('numpy.random',
   '/home/wmolewnce/.local/lib/python3.6/site-packages/numpy/random/__init__.py',
   'PYMODULE'),
  ('numpy.polynomial',
   '/home/wmolewnce/.local/lib/python3.6/site-packages/numpy/polynomial/__init__.py',
   'PYMODULE'),
  ('numpy.polynomial.laguerre',
   '/home/wmolewnce/.local/lib/python3.6/site-packages/numpy/polynomial/laguerre.py',
   'PYMODULE'),
  ('numpy.polynomial._polybase',
   '/home/wmolewnce/.local/lib/python3.6/site-packages/numpy/polynomial/_polybase.py',
   'PYMODULE'),
  ('numpy.polynomial.hermite_e',
   '/home/wmolewnce/.local/lib/python3.6/site-packages/numpy/polynomial/hermite_e.py',
   'PYMODULE'),
  ('numpy.polynomial.hermite',
   '/home/wmolewnce/.local/lib/python3.6/site-packages/numpy/polynomial/hermite.py',
   'PYMODULE'),
  ('numpy.polynomial.legendre',
   '/home/wmolewnce/.local/lib/python3.6/site-packages/numpy/polynomial/legendre.py',
   'PYMODULE'),
  ('numpy.polynomial.chebyshev',
   '/home/wmolewnce/.local/lib/python3.6/site-packages/numpy/polynomial/chebyshev.py',
   'PYMODULE'),
  ('numpy.polynomial.polynomial',
   '/home/wmolewnce/.local/lib/python3.6/site-packages/numpy/polynomial/polynomial.py',
   'PYMODULE'),
  ('numpy.polynomial.polyutils',
   '/home/wmolewnce/.local/lib/python3.6/site-packages/numpy/polynomial/polyutils.py',
   'PYMODULE'),
  ('numpy._distributor_init',
   '/home/wmolewnce/.local/lib/python3.6/site-packages/numpy/_distributor_init.py',
   'PYMODULE'),
  ('numpy.__config__',
   '/home/wmolewnce/.local/lib/python3.6/site-packages/numpy/__config__.py',
   'PYMODULE'),
  ('pandas.core.arrays.sparse',
   '/home/wmolewnce/.local/lib/python3.6/site-packages/pandas/core/arrays/sparse.py',
   'PYMODULE'),
  ('pandas.core.arrays.integer',
   '/home/wmolewnce/.local/lib/python3.6/site-packages/pandas/core/arrays/integer.py',
   'PYMODULE'),
  ('pandas.core.arrays.timedeltas',
   '/home/wmolewnce/.local/lib/python3.6/site-packages/pandas/core/arrays/timedeltas.py',
   'PYMODULE'),
  ('pandas.core.arrays.period',
   '/home/wmolewnce/.local/lib/python3.6/site-packages/pandas/core/arrays/period.py',
   'PYMODULE'),
  ('pandas.core.arrays.interval',
   '/home/wmolewnce/.local/lib/python3.6/site-packages/pandas/core/arrays/interval.py',
   'PYMODULE'),
  ('pandas.core.arrays.datetimes',
   '/home/wmolewnce/.local/lib/python3.6/site-packages/pandas/core/arrays/datetimes.py',
   'PYMODULE'),
  ('pandas.core.arrays._ranges',
   '/home/wmolewnce/.local/lib/python3.6/site-packages/pandas/core/arrays/_ranges.py',
   'PYMODULE'),
  ('pandas.core.arrays.categorical',
   '/home/wmolewnce/.local/lib/python3.6/site-packages/pandas/core/arrays/categorical.py',
   'PYMODULE'),
  ('pandas.core.arrays.base',
   '/home/wmolewnce/.local/lib/python3.6/site-packages/pandas/core/arrays/base.py',
   'PYMODULE'),
  ('pandas.core.arrays.array_',
   '/home/wmolewnce/.local/lib/python3.6/site-packages/pandas/core/arrays/array_.py',
   'PYMODULE'),
  ('pandas.core.arrays.datetimelike',
   '/home/wmolewnce/.local/lib/python3.6/site-packages/pandas/core/arrays/datetimelike.py',
   'PYMODULE'),
  ('pandas.core',
   '/home/wmolewnce/.local/lib/python3.6/site-packages/pandas/core/__init__.py',
   'PYMODULE'),
  ('pandas.testing',
   '/home/wmolewnce/.local/lib/python3.6/site-packages/pandas/testing.py',
   'PYMODULE'),
  ('pandas.util.testing',
   '/home/wmolewnce/.local/lib/python3.6/site-packages/pandas/util/testing.py',
   'PYMODULE'),
  ('pandas.util._tester',
   '/home/wmolewnce/.local/lib/python3.6/site-packages/pandas/util/_tester.py',
   'PYMODULE'),
  ('pandas.io.api',
   '/home/wmolewnce/.local/lib/python3.6/site-packages/pandas/io/api.py',
   'PYMODULE'),
  ('pandas.io.sas',
   '/home/wmolewnce/.local/lib/python3.6/site-packages/pandas/io/sas/__init__.py',
   'PYMODULE'),
  ('pandas.io.sas.sasreader',
   '/home/wmolewnce/.local/lib/python3.6/site-packages/pandas/io/sas/sasreader.py',
   'PYMODULE'),
  ('pandas.io.sas.sas7bdat',
   '/home/wmolewnce/.local/lib/python3.6/site-packages/pandas/io/sas/sas7bdat.py',
   'PYMODULE'),
  ('pandas.io.sas.sas_constants',
   '/home/wmolewnce/.local/lib/python3.6/site-packages/pandas/io/sas/sas_constants.py',
   'PYMODULE'),
  ('pandas.io.sas.sas_xport',
   '/home/wmolewnce/.local/lib/python3.6/site-packages/pandas/io/sas/sas_xport.py',
   'PYMODULE'),
  ('pandas.io.html',
   '/home/wmolewnce/.local/lib/python3.6/site-packages/pandas/io/html.py',
   'PYMODULE'),
  ('bs4',
   '/home/wmolewnce/.local/lib/python3.6/site-packages/bs4/__init__.py',
   'PYMODULE'),
  ('bs4.element',
   '/home/wmolewnce/.local/lib/python3.6/site-packages/bs4/element.py',
   'PYMODULE'),
  ('soupsieve',
   '/home/wmolewnce/.local/lib/python3.6/site-packages/soupsieve/__init__.py',
   'PYMODULE'),
  ('soupsieve.css_parser',
   '/home/wmolewnce/.local/lib/python3.6/site-packages/soupsieve/css_parser.py',
   'PYMODULE'),
  ('soupsieve.css_match',
   '/home/wmolewnce/.local/lib/python3.6/site-packages/soupsieve/css_match.py',
   'PYMODULE'),
  ('soupsieve.css_types',
   '/home/wmolewnce/.local/lib/python3.6/site-packages/soupsieve/css_types.py',
   'PYMODULE'),
  ('soupsieve.util',
   '/home/wmolewnce/.local/lib/python3.6/site-packages/soupsieve/util.py',
   'PYMODULE'),
  ('soupsieve.__meta__',
   '/home/wmolewnce/.local/lib/python3.6/site-packages/soupsieve/__meta__.py',
   'PYMODULE'),
  ('bs4.dammit',
   '/home/wmolewnce/.local/lib/python3.6/site-packages/bs4/dammit.py',
   'PYMODULE'),
  ('chardet', '/usr/lib/python3/dist-packages/chardet/__init__.py', 'PYMODULE'),
  ('chardet.version',
   '/usr/lib/python3/dist-packages/chardet/version.py',
   'PYMODULE'),
  ('chardet.universaldetector',
   '/usr/lib/python3/dist-packages/chardet/universaldetector.py',
   'PYMODULE'),
  ('chardet.sbcsgroupprober',
   '/usr/lib/python3/dist-packages/chardet/sbcsgroupprober.py',
   'PYMODULE'),
  ('chardet.langturkishmodel',
   '/usr/lib/python3/dist-packages/chardet/langturkishmodel.py',
   'PYMODULE'),
  ('chardet.hebrewprober',
   '/usr/lib/python3/dist-packages/chardet/hebrewprober.py',
   'PYMODULE'),
  ('chardet.charsetprober',
   '/usr/lib/python3/dist-packages/chardet/charsetprober.py',
   'PYMODULE'),
  ('chardet.langhebrewmodel',
   '/usr/lib/python3/dist-packages/chardet/langhebrewmodel.py',
   'PYMODULE'),
  ('chardet.langthaimodel',
   '/usr/lib/python3/dist-packages/chardet/langthaimodel.py',
   'PYMODULE'),
  ('chardet.langbulgarianmodel',
   '/usr/lib/python3/dist-packages/chardet/langbulgarianmodel.py',
   'PYMODULE'),
  ('chardet.langgreekmodel',
   '/usr/lib/python3/dist-packages/chardet/langgreekmodel.py',
   'PYMODULE'),
  ('chardet.langcyrillicmodel',
   '/usr/lib/python3/dist-packages/chardet/langcyrillicmodel.py',
   'PYMODULE'),
  ('chardet.sbcharsetprober',
   '/usr/lib/python3/dist-packages/chardet/sbcharsetprober.py',
   'PYMODULE'),
  ('chardet.mbcsgroupprober',
   '/usr/lib/python3/dist-packages/chardet/mbcsgroupprober.py',
   'PYMODULE'),
  ('chardet.euctwprober',
   '/usr/lib/python3/dist-packages/chardet/euctwprober.py',
   'PYMODULE'),
  ('chardet.mbcssm',
   '/usr/lib/python3/dist-packages/chardet/mbcssm.py',
   'PYMODULE'),
  ('chardet.chardistribution',
   '/usr/lib/python3/dist-packages/chardet/chardistribution.py',
   'PYMODULE'),
  ('chardet.jisfreq',
   '/usr/lib/python3/dist-packages/chardet/jisfreq.py',
   'PYMODULE'),
  ('chardet.big5freq',
   '/usr/lib/python3/dist-packages/chardet/big5freq.py',
   'PYMODULE'),
  ('chardet.gb2312freq',
   '/usr/lib/python3/dist-packages/chardet/gb2312freq.py',
   'PYMODULE'),
  ('chardet.euckrfreq',
   '/usr/lib/python3/dist-packages/chardet/euckrfreq.py',
   'PYMODULE'),
  ('chardet.euctwfreq',
   '/usr/lib/python3/dist-packages/chardet/euctwfreq.py',
   'PYMODULE'),
  ('chardet.codingstatemachine',
   '/usr/lib/python3/dist-packages/chardet/codingstatemachine.py',
   'PYMODULE'),
  ('chardet.mbcharsetprober',
   '/usr/lib/python3/dist-packages/chardet/mbcharsetprober.py',
   'PYMODULE'),
  ('chardet.big5prober',
   '/usr/lib/python3/dist-packages/chardet/big5prober.py',
   'PYMODULE'),
  ('chardet.cp949prober',
   '/usr/lib/python3/dist-packages/chardet/cp949prober.py',
   'PYMODULE'),
  ('chardet.euckrprober',
   '/usr/lib/python3/dist-packages/chardet/euckrprober.py',
   'PYMODULE'),
  ('chardet.gb2312prober',
   '/usr/lib/python3/dist-packages/chardet/gb2312prober.py',
   'PYMODULE'),
  ('chardet.eucjpprober',
   '/usr/lib/python3/dist-packages/chardet/eucjpprober.py',
   'PYMODULE'),
  ('chardet.jpcntx',
   '/usr/lib/python3/dist-packages/chardet/jpcntx.py',
   'PYMODULE'),
  ('chardet.sjisprober',
   '/usr/lib/python3/dist-packages/chardet/sjisprober.py',
   'PYMODULE'),
  ('chardet.utf8prober',
   '/usr/lib/python3/dist-packages/chardet/utf8prober.py',
   'PYMODULE'),
  ('chardet.latin1prober',
   '/usr/lib/python3/dist-packages/chardet/latin1prober.py',
   'PYMODULE'),
  ('chardet.escprober',
   '/usr/lib/python3/dist-packages/chardet/escprober.py',
   'PYMODULE'),
  ('chardet.escsm',
   '/usr/lib/python3/dist-packages/chardet/escsm.py',
   'PYMODULE'),
  ('chardet.enums',
   '/usr/lib/python3/dist-packages/chardet/enums.py',
   'PYMODULE'),
  ('chardet.charsetgroupprober',
   '/usr/lib/python3/dist-packages/chardet/charsetgroupprober.py',
   'PYMODULE'),
  ('chardet.compat',
   '/usr/lib/python3/dist-packages/chardet/compat.py',
   'PYMODULE'),
  ('bs4.builder',
   '/home/wmolewnce/.local/lib/python3.6/site-packages/bs4/builder/__init__.py',
   'PYMODULE'),
  ('bs4.builder._lxml',
   '/home/wmolewnce/.local/lib/python3.6/site-packages/bs4/builder/_lxml.py',
   'PYMODULE'),
  ('bs4.builder._html5lib',
   '/home/wmolewnce/.local/lib/python3.6/site-packages/bs4/builder/_html5lib.py',
   'PYMODULE'),
  ('bs4.builder._htmlparser',
   '/home/wmolewnce/.local/lib/python3.6/site-packages/bs4/builder/_htmlparser.py',
   'PYMODULE'),
  ('pandas.util._print_versions',
   '/home/wmolewnce/.local/lib/python3.6/site-packages/pandas/util/_print_versions.py',
   'PYMODULE'),
  ('simplejson',
   '/usr/lib/python3/dist-packages/simplejson/__init__.py',
   'PYMODULE'),
  ('simplejson.scanner',
   '/usr/lib/python3/dist-packages/simplejson/scanner.py',
   'PYMODULE'),
  ('simplejson.ordered_dict',
   '/usr/lib/python3/dist-packages/simplejson/ordered_dict.py',
   'PYMODULE'),
  ('simplejson.encoder',
   '/usr/lib/python3/dist-packages/simplejson/encoder.py',
   'PYMODULE'),
  ('simplejson.compat',
   '/usr/lib/python3/dist-packages/simplejson/compat.py',
   'PYMODULE'),
  ('simplejson.decoder',
   '/usr/lib/python3/dist-packages/simplejson/decoder.py',
   'PYMODULE'),
  ('simplejson.raw_json',
   '/usr/lib/python3/dist-packages/simplejson/raw_json.py',
   'PYMODULE'),
  ('simplejson.errors',
   '/usr/lib/python3/dist-packages/simplejson/errors.py',
   'PYMODULE'),
  ('pandas.core.reshape.api',
   '/home/wmolewnce/.local/lib/python3.6/site-packages/pandas/core/reshape/api.py',
   'PYMODULE'),
  ('pandas.core.computation.api',
   '/home/wmolewnce/.local/lib/python3.6/site-packages/pandas/core/computation/api.py',
   'PYMODULE'),
  ('pandas.tseries.api',
   '/home/wmolewnce/.local/lib/python3.6/site-packages/pandas/tseries/api.py',
   'PYMODULE'),
  ('pandas.core.sparse.api',
   '/home/wmolewnce/.local/lib/python3.6/site-packages/pandas/core/sparse/api.py',
   'PYMODULE'),
  ('pandas.core.sparse.frame',
   '/home/wmolewnce/.local/lib/python3.6/site-packages/pandas/core/sparse/frame.py',
   'PYMODULE'),
  ('pandas.core.api',
   '/home/wmolewnce/.local/lib/python3.6/site-packages/pandas/core/api.py',
   'PYMODULE'),
  ('pandas.core.config_init',
   '/home/wmolewnce/.local/lib/python3.6/site-packages/pandas/core/config_init.py',
   'PYMODULE'),
  ('pandas._libs',
   '/home/wmolewnce/.local/lib/python3.6/site-packages/pandas/_libs/__init__.py',
   'PYMODULE'),
  ('pandas.compat.numpy',
   '/home/wmolewnce/.local/lib/python3.6/site-packages/pandas/compat/numpy/__init__.py',
   'PYMODULE'),
  ('tkinter', '/usr/lib/python3.6/tkinter/__init__.py', 'PYMODULE'),
  ('tkinter.constants', '/usr/lib/python3.6/tkinter/constants.py', 'PYMODULE'),
  ('socket', '/usr/lib/python3.6/socket.py', 'PYMODULE'),
  ('selenium.webdriver.common.action_chains',
   '/home/wmolewnce/.local/lib/python3.6/site-packages/selenium/webdriver/common/action_chains.py',
   'PYMODULE'),
  ('selenium.webdriver.common',
   '/home/wmolewnce/.local/lib/python3.6/site-packages/selenium/webdriver/common/__init__.py',
   'PYMODULE'),
  ('selenium.webdriver.common.service',
   '/home/wmolewnce/.local/lib/python3.6/site-packages/selenium/webdriver/common/service.py',
   'PYMODULE'),
  ('selenium.webdriver.common.actions.action_builder',
   '/home/wmolewnce/.local/lib/python3.6/site-packages/selenium/webdriver/common/actions/action_builder.py',
   'PYMODULE'),
  ('selenium.webdriver.common.actions.pointer_input',
   '/home/wmolewnce/.local/lib/python3.6/site-packages/selenium/webdriver/common/actions/pointer_input.py',
   'PYMODULE'),
  ('selenium.webdriver.remote.webelement',
   '/home/wmolewnce/.local/lib/python3.6/site-packages/selenium/webdriver/remote/webelement.py',
   'PYMODULE'),
  ('selenium.webdriver.remote',
   '/home/wmolewnce/.local/lib/python3.6/site-packages/selenium/webdriver/remote/__init__.py',
   'PYMODULE'),
  ('selenium.webdriver.remote.utils',
   '/home/wmolewnce/.local/lib/python3.6/site-packages/selenium/webdriver/remote/utils.py',
   'PYMODULE'),
  ('selenium.webdriver.common.actions.input_device',
   '/home/wmolewnce/.local/lib/python3.6/site-packages/selenium/webdriver/common/actions/input_device.py',
   'PYMODULE'),
  ('selenium.webdriver.common.actions.pointer_actions',
   '/home/wmolewnce/.local/lib/python3.6/site-packages/selenium/webdriver/common/actions/pointer_actions.py',
   'PYMODULE'),
  ('selenium.webdriver.common.actions.mouse_button',
   '/home/wmolewnce/.local/lib/python3.6/site-packages/selenium/webdriver/common/actions/mouse_button.py',
   'PYMODULE'),
  ('selenium.webdriver.common.actions.key_input',
   '/home/wmolewnce/.local/lib/python3.6/site-packages/selenium/webdriver/common/actions/key_input.py',
   'PYMODULE'),
  ('selenium.webdriver.common.actions.key_actions',
   '/home/wmolewnce/.local/lib/python3.6/site-packages/selenium/webdriver/common/actions/key_actions.py',
   'PYMODULE'),
  ('selenium.webdriver.common.actions.interaction',
   '/home/wmolewnce/.local/lib/python3.6/site-packages/selenium/webdriver/common/actions/interaction.py',
   'PYMODULE'),
  ('selenium.webdriver.common.actions',
   '/home/wmolewnce/.local/lib/python3.6/site-packages/selenium/webdriver/common/actions/__init__.py',
   'PYMODULE'),
  ('selenium.webdriver.common.utils',
   '/home/wmolewnce/.local/lib/python3.6/site-packages/selenium/webdriver/common/utils.py',
   'PYMODULE'),
  ('selenium.webdriver.remote.command',
   '/home/wmolewnce/.local/lib/python3.6/site-packages/selenium/webdriver/remote/command.py',
   'PYMODULE'),
  ('selenium.webdriver.support.ui',
   '/home/wmolewnce/.local/lib/python3.6/site-packages/selenium/webdriver/support/ui.py',
   'PYMODULE'),
  ('selenium.webdriver.support.wait',
   '/home/wmolewnce/.local/lib/python3.6/site-packages/selenium/webdriver/support/wait.py',
   'PYMODULE'),
  ('selenium.webdriver.support.select',
   '/home/wmolewnce/.local/lib/python3.6/site-packages/selenium/webdriver/support/select.py',
   'PYMODULE'),
  ('selenium.common.exceptions',
   '/home/wmolewnce/.local/lib/python3.6/site-packages/selenium/common/exceptions.py',
   'PYMODULE'),
  ('selenium.common',
   '/home/wmolewnce/.local/lib/python3.6/site-packages/selenium/common/__init__.py',
   'PYMODULE'),
  ('selenium.webdriver.support.expected_conditions',
   '/home/wmolewnce/.local/lib/python3.6/site-packages/selenium/webdriver/support/expected_conditions.py',
   'PYMODULE'),
  ('selenium.webdriver.remote.webdriver',
   '/home/wmolewnce/.local/lib/python3.6/site-packages/selenium/webdriver/remote/webdriver.py',
   'PYMODULE'),
  ('selenium.webdriver.common.html5.application_cache',
   '/home/wmolewnce/.local/lib/python3.6/site-packages/selenium/webdriver/common/html5/application_cache.py',
   'PYMODULE'),
  ('selenium.webdriver.common.html5',
   '/home/wmolewnce/.local/lib/python3.6/site-packages/selenium/webdriver/common/html5/__init__.py',
   'PYMODULE'),
  ('selenium.webdriver.remote.file_detector',
   '/home/wmolewnce/.local/lib/python3.6/site-packages/selenium/webdriver/remote/file_detector.py',
   'PYMODULE'),
  ('selenium.webdriver.remote.mobile',
   '/home/wmolewnce/.local/lib/python3.6/site-packages/selenium/webdriver/remote/mobile.py',
   'PYMODULE'),
  ('selenium.webdriver.remote.switch_to',
   '/home/wmolewnce/.local/lib/python3.6/site-packages/selenium/webdriver/remote/switch_to.py',
   'PYMODULE'),
  ('selenium.webdriver.common.alert',
   '/home/wmolewnce/.local/lib/python3.6/site-packages/selenium/webdriver/common/alert.py',
   'PYMODULE'),
  ('selenium.webdriver.remote.errorhandler',
   '/home/wmolewnce/.local/lib/python3.6/site-packages/selenium/webdriver/remote/errorhandler.py',
   'PYMODULE'),
  ('selenium.webdriver.remote.remote_connection',
   '/home/wmolewnce/.local/lib/python3.6/site-packages/selenium/webdriver/remote/remote_connection.py',
   'PYMODULE'),
  ('urllib3',
   '/home/wmolewnce/.local/lib/python3.6/site-packages/urllib3/__init__.py',
   'PYMODULE'),
  ('urllib3.util.retry',
   '/home/wmolewnce/.local/lib/python3.6/site-packages/urllib3/util/retry.py',
   'PYMODULE'),
  ('urllib3.util',
   '/home/wmolewnce/.local/lib/python3.6/site-packages/urllib3/util/__init__.py',
   'PYMODULE'),
  ('urllib3.util.wait',
   '/home/wmolewnce/.local/lib/python3.6/site-packages/urllib3/util/wait.py',
   'PYMODULE'),
  ('urllib3.util.ssl_',
   '/home/wmolewnce/.local/lib/python3.6/site-packages/urllib3/util/ssl_.py',
   'PYMODULE'),
  ('urllib3.util.response',
   '/home/wmolewnce/.local/lib/python3.6/site-packages/urllib3/util/response.py',
   'PYMODULE'),
  ('urllib3.util.connection',
   '/home/wmolewnce/.local/lib/python3.6/site-packages/urllib3/util/connection.py',
   'PYMODULE'),
  ('urllib3.contrib._appengine_environ',
   '/home/wmolewnce/.local/lib/python3.6/site-packages/urllib3/contrib/_appengine_environ.py',
   'PYMODULE'),
  ('urllib3.contrib',
   '/home/wmolewnce/.local/lib/python3.6/site-packages/urllib3/contrib/__init__.py',
   'PYMODULE'),
  ('urllib3.packages.six',
   '/home/wmolewnce/.local/lib/python3.6/site-packages/urllib3/packages/six.py',
   'PYMODULE'),
  ('urllib3.packages',
   '/home/wmolewnce/.local/lib/python3.6/site-packages/urllib3/packages/__init__.py',
   'PYMODULE'),
  ('urllib3.packages.ssl_match_hostname',
   '/home/wmolewnce/.local/lib/python3.6/site-packages/urllib3/packages/ssl_match_hostname/__init__.py',
   'PYMODULE'),
  ('urllib3.packages.ssl_match_hostname._implementation',
   '/home/wmolewnce/.local/lib/python3.6/site-packages/urllib3/packages/ssl_match_hostname/_implementation.py',
   'PYMODULE'),
  ('urllib3.util.timeout',
   '/home/wmolewnce/.local/lib/python3.6/site-packages/urllib3/util/timeout.py',
   'PYMODULE'),
  ('urllib3.util.url',
   '/home/wmolewnce/.local/lib/python3.6/site-packages/urllib3/util/url.py',
   'PYMODULE'),
  ('urllib3.util.request',
   '/home/wmolewnce/.local/lib/python3.6/site-packages/urllib3/util/request.py',
   'PYMODULE'),
  ('urllib3.response',
   '/home/wmolewnce/.local/lib/python3.6/site-packages/urllib3/response.py',
   'PYMODULE'),
  ('urllib3.connection',
   '/home/wmolewnce/.local/lib/python3.6/site-packages/urllib3/connection.py',
   'PYMODULE'),
  ('urllib3._collections',
   '/home/wmolewnce/.local/lib/python3.6/site-packages/urllib3/_collections.py',
   'PYMODULE'),
  ('urllib3.poolmanager',
   '/home/wmolewnce/.local/lib/python3.6/site-packages/urllib3/poolmanager.py',
   'PYMODULE'),
  ('urllib3.request',
   '/home/wmolewnce/.local/lib/python3.6/site-packages/urllib3/request.py',
   'PYMODULE'),
  ('urllib3.filepost',
   '/home/wmolewnce/.local/lib/python3.6/site-packages/urllib3/filepost.py',
   'PYMODULE'),
  ('urllib3.fields',
   '/home/wmolewnce/.local/lib/python3.6/site-packages/urllib3/fields.py',
   'PYMODULE'),
  ('urllib3.exceptions',
   '/home/wmolewnce/.local/lib/python3.6/site-packages/urllib3/exceptions.py',
   'PYMODULE'),
  ('urllib3.connectionpool',
   '/home/wmolewnce/.local/lib/python3.6/site-packages/urllib3/connectionpool.py',
   'PYMODULE'),
  ('urllib3.util.queue',
   '/home/wmolewnce/.local/lib/python3.6/site-packages/urllib3/util/queue.py',
   'PYMODULE'),
  ('selenium.webdriver.support',
   '/home/wmolewnce/.local/lib/python3.6/site-packages/selenium/webdriver/support/__init__.py',
   'PYMODULE'),
  ('selenium.webdriver.common.keys',
   '/home/wmolewnce/.local/lib/python3.6/site-packages/selenium/webdriver/common/keys.py',
   'PYMODULE'),
  ('selenium.webdriver',
   '/home/wmolewnce/.local/lib/python3.6/site-packages/selenium/webdriver/__init__.py',
   'PYMODULE'),
  ('selenium.webdriver.common.proxy',
   '/home/wmolewnce/.local/lib/python3.6/site-packages/selenium/webdriver/common/proxy.py',
   'PYMODULE'),
  ('selenium.webdriver.common.touch_actions',
   '/home/wmolewnce/.local/lib/python3.6/site-packages/selenium/webdriver/common/touch_actions.py',
   'PYMODULE'),
  ('selenium.webdriver.common.desired_capabilities',
   '/home/wmolewnce/.local/lib/python3.6/site-packages/selenium/webdriver/common/desired_capabilities.py',
   'PYMODULE'),
  ('selenium.webdriver.webkitgtk.options',
   '/home/wmolewnce/.local/lib/python3.6/site-packages/selenium/webdriver/webkitgtk/options.py',
   'PYMODULE'),
  ('selenium.webdriver.webkitgtk',
   '/home/wmolewnce/.local/lib/python3.6/site-packages/selenium/webdriver/webkitgtk/__init__.py',
   'PYMODULE'),
  ('selenium.webdriver.webkitgtk.webdriver',
   '/home/wmolewnce/.local/lib/python3.6/site-packages/selenium/webdriver/webkitgtk/webdriver.py',
   'PYMODULE'),
  ('selenium.webdriver.webkitgtk.service',
   '/home/wmolewnce/.local/lib/python3.6/site-packages/selenium/webdriver/webkitgtk/service.py',
   'PYMODULE'),
  ('selenium.webdriver.android.webdriver',
   '/home/wmolewnce/.local/lib/python3.6/site-packages/selenium/webdriver/android/webdriver.py',
   'PYMODULE'),
  ('selenium.webdriver.android',
   '/home/wmolewnce/.local/lib/python3.6/site-packages/selenium/webdriver/android/__init__.py',
   'PYMODULE'),
  ('selenium.webdriver.phantomjs.webdriver',
   '/home/wmolewnce/.local/lib/python3.6/site-packages/selenium/webdriver/phantomjs/webdriver.py',
   'PYMODULE'),
  ('selenium.webdriver.phantomjs',
   '/home/wmolewnce/.local/lib/python3.6/site-packages/selenium/webdriver/phantomjs/__init__.py',
   'PYMODULE'),
  ('selenium.webdriver.phantomjs.service',
   '/home/wmolewnce/.local/lib/python3.6/site-packages/selenium/webdriver/phantomjs/service.py',
   'PYMODULE'),
  ('selenium.webdriver.blackberry.webdriver',
   '/home/wmolewnce/.local/lib/python3.6/site-packages/selenium/webdriver/blackberry/webdriver.py',
   'PYMODULE'),
  ('selenium.webdriver.blackberry',
   '/home/wmolewnce/.local/lib/python3.6/site-packages/selenium/webdriver/blackberry/__init__.py',
   'PYMODULE'),
  ('selenium.webdriver.safari.webdriver',
   '/home/wmolewnce/.local/lib/python3.6/site-packages/selenium/webdriver/safari/webdriver.py',
   'PYMODULE'),
  ('selenium.webdriver.safari',
   '/home/wmolewnce/.local/lib/python3.6/site-packages/selenium/webdriver/safari/__init__.py',
   'PYMODULE'),
  ('selenium.webdriver.safari.remote_connection',
   '/home/wmolewnce/.local/lib/python3.6/site-packages/selenium/webdriver/safari/remote_connection.py',
   'PYMODULE'),
  ('selenium.webdriver.safari.service',
   '/home/wmolewnce/.local/lib/python3.6/site-packages/selenium/webdriver/safari/service.py',
   'PYMODULE'),
  ('selenium.webdriver.opera.webdriver',
   '/home/wmolewnce/.local/lib/python3.6/site-packages/selenium/webdriver/opera/webdriver.py',
   'PYMODULE'),
  ('selenium.webdriver.opera',
   '/home/wmolewnce/.local/lib/python3.6/site-packages/selenium/webdriver/opera/__init__.py',
   'PYMODULE'),
  ('selenium.webdriver.opera.options',
   '/home/wmolewnce/.local/lib/python3.6/site-packages/selenium/webdriver/opera/options.py',
   'PYMODULE'),
  ('selenium.webdriver.edge.webdriver',
   '/home/wmolewnce/.local/lib/python3.6/site-packages/selenium/webdriver/edge/webdriver.py',
   'PYMODULE'),
  ('selenium.webdriver.edge',
   '/home/wmolewnce/.local/lib/python3.6/site-packages/selenium/webdriver/edge/__init__.py',
   'PYMODULE'),
  ('selenium.webdriver.edge.service',
   '/home/wmolewnce/.local/lib/python3.6/site-packages/selenium/webdriver/edge/service.py',
   'PYMODULE'),
  ('selenium.webdriver.ie.options',
   '/home/wmolewnce/.local/lib/python3.6/site-packages/selenium/webdriver/ie/options.py',
   'PYMODULE'),
  ('selenium.webdriver.ie',
   '/home/wmolewnce/.local/lib/python3.6/site-packages/selenium/webdriver/ie/__init__.py',
   'PYMODULE'),
  ('selenium.webdriver.ie.webdriver',
   '/home/wmolewnce/.local/lib/python3.6/site-packages/selenium/webdriver/ie/webdriver.py',
   'PYMODULE'),
  ('selenium.webdriver.ie.service',
   '/home/wmolewnce/.local/lib/python3.6/site-packages/selenium/webdriver/ie/service.py',
   'PYMODULE'),
  ('selenium.webdriver.chrome.options',
   '/home/wmolewnce/.local/lib/python3.6/site-packages/selenium/webdriver/chrome/options.py',
   'PYMODULE'),
  ('selenium.webdriver.chrome',
   '/home/wmolewnce/.local/lib/python3.6/site-packages/selenium/webdriver/chrome/__init__.py',
   'PYMODULE'),
  ('selenium.webdriver.chrome.webdriver',
   '/home/wmolewnce/.local/lib/python3.6/site-packages/selenium/webdriver/chrome/webdriver.py',
   'PYMODULE'),
  ('selenium.webdriver.chrome.service',
   '/home/wmolewnce/.local/lib/python3.6/site-packages/selenium/webdriver/chrome/service.py',
   'PYMODULE'),
  ('selenium.webdriver.chrome.remote_connection',
   '/home/wmolewnce/.local/lib/python3.6/site-packages/selenium/webdriver/chrome/remote_connection.py',
   'PYMODULE'),
  ('selenium.webdriver.firefox.options',
   '/home/wmolewnce/.local/lib/python3.6/site-packages/selenium/webdriver/firefox/options.py',
   'PYMODULE'),
  ('selenium.webdriver.firefox',
   '/home/wmolewnce/.local/lib/python3.6/site-packages/selenium/webdriver/firefox/__init__.py',
   'PYMODULE'),
  ('selenium.webdriver.firefox.firefox_binary',
   '/home/wmolewnce/.local/lib/python3.6/site-packages/selenium/webdriver/firefox/firefox_binary.py',
   'PYMODULE'),
  ('selenium.webdriver.firefox.firefox_profile',
   '/home/wmolewnce/.local/lib/python3.6/site-packages/selenium/webdriver/firefox/firefox_profile.py',
   'PYMODULE'),
  ('xml.dom.minidom', '/usr/lib/python3.6/xml/dom/minidom.py', 'PYMODULE'),
  ('xml.dom.pulldom', '/usr/lib/python3.6/xml/dom/pulldom.py', 'PYMODULE'),
  ('xml.dom.expatbuilder',
   '/usr/lib/python3.6/xml/dom/expatbuilder.py',
   'PYMODULE'),
  ('xml.dom.NodeFilter',
   '/usr/lib/python3.6/xml/dom/NodeFilter.py',
   'PYMODULE'),
  ('xml.dom.xmlbuilder',
   '/usr/lib/python3.6/xml/dom/xmlbuilder.py',
   'PYMODULE'),
  ('xml.dom.minicompat',
   '/usr/lib/python3.6/xml/dom/minicompat.py',
   'PYMODULE'),
  ('xml.dom.domreg', '/usr/lib/python3.6/xml/dom/domreg.py', 'PYMODULE'),
  ('xml.dom', '/usr/lib/python3.6/xml/dom/__init__.py', 'PYMODULE'),
  ('selenium.webdriver.firefox.webdriver',
   '/home/wmolewnce/.local/lib/python3.6/site-packages/selenium/webdriver/firefox/webdriver.py',
   'PYMODULE'),
  ('selenium.webdriver.firefox.webelement',
   '/home/wmolewnce/.local/lib/python3.6/site-packages/selenium/webdriver/firefox/webelement.py',
   'PYMODULE'),
  ('selenium.webdriver.firefox.service',
   '/home/wmolewnce/.local/lib/python3.6/site-packages/selenium/webdriver/firefox/service.py',
   'PYMODULE'),
  ('selenium.webdriver.firefox.remote_connection',
   '/home/wmolewnce/.local/lib/python3.6/site-packages/selenium/webdriver/firefox/remote_connection.py',
   'PYMODULE'),
  ('selenium.webdriver.firefox.extension_connection',
   '/home/wmolewnce/.local/lib/python3.6/site-packages/selenium/webdriver/firefox/extension_connection.py',
   'PYMODULE'),
  ('selenium',
   '/home/wmolewnce/.local/lib/python3.6/site-packages/selenium/__init__.py',
   'PYMODULE'),
  ('selenium.webdriver.common.by',
   '/home/wmolewnce/.local/lib/python3.6/site-packages/selenium/webdriver/common/by.py',
   'PYMODULE')])
